#define next_width 16
#define next_height 16
static unsigned char next_bits[] = {
   0x00, 0x00, 0x00, 0x00, 0x00, 0x03, 0x00, 0x07, 0xff, 0x0f, 0xff, 0x1d,
   0x03, 0x38, 0x03, 0x70, 0x03, 0xe0, 0x03, 0x70, 0x03, 0x38, 0xff, 0x1d,
   0xff, 0x0f, 0x00, 0x07, 0x00, 0x03, 0x00, 0x00};
