#define setup_width 16
#define setup_height 16
static unsigned char setup_bits[] = {
   0x80, 0x03, 0x88, 0x03, 0x9c, 0x33, 0xfc, 0x7f, 0xf8, 0x3f, 0x38, 0x1c,
   0x1f, 0x18, 0x1f, 0xf8, 0x1f, 0xf8, 0x18, 0xf8, 0x38, 0x1c, 0xfc, 0x1f,
   0xfe, 0x3f, 0xcc, 0x39, 0xc0, 0x11, 0xc0, 0x01};
