#FIG 3.2  Produced by xfig version 3.2.5b
Landscape
Center
Metric
A4      
100.00
Single
-2
1200 2
0 32 #d0d0d0
2 1 0 2 0 7 50 -1 -1 0.000 0 0 -1 0 0 4
	 3825 4725 4905 4725 4995 4950 5940 4950
2 1 0 2 0 7 50 -1 -1 6.000 0 0 -1 0 0 4
	 6660 4950 7605 4950 7695 4725 8235 4725
2 1 1 2 0 7 55 -1 -1 6.000 0 0 -1 0 0 2
	 5940 4950 6660 4950
2 1 0 2 0 7 50 -1 -1 0.000 0 0 -1 0 0 4
	 3825 4050 4230 4050 4320 4275 5940 4275
2 1 0 2 0 7 50 -1 -1 0.000 0 0 -1 0 0 4
	 6705 4275 7380 4275 7470 4050 8235 4050
2 1 0 2 0 7 50 -1 -1 0.000 0 0 -1 0 0 6
	 3825 3375 4680 3375 4770 3600 5355 3600 5445 3375 5940 3375
2 1 0 2 0 7 50 -1 -1 6.000 0 0 -1 0 0 2
	 6660 3375 7245 3375
2 1 0 2 0 7 50 -1 -1 6.000 0 0 -1 0 0 2
	 5940 3600 5355 3600
2 1 0 2 0 7 50 -1 -1 6.000 0 0 -1 0 0 4
	 6660 3600 7155 3600 7245 3375 8235 3375
2 1 1 2 0 7 55 -1 -1 6.000 0 0 -1 0 0 2
	 5940 3600 6660 3600
2 1 1 2 0 7 55 -1 -1 6.000 0 0 -1 0 0 2
	 5940 3375 6660 3375
2 1 0 2 0 7 45 -1 -1 6.000 0 0 -1 1 0 2
	1 1 2.00 60.00 60.00
	 4725 3645 4905 4680
2 1 0 2 0 7 45 -1 -1 6.000 0 0 -1 1 0 2
	1 1 2.00 60.00 60.00
	 3825 3105 3825 3330
2 1 0 2 0 7 45 -1 -1 6.000 0 0 -1 1 0 2
	1 1 2.00 60.00 60.00
	 4280 4008 4640 3423
2 1 0 2 0 7 45 -1 -1 6.000 0 0 -1 1 0 2
	1 1 2.00 60.00 60.00
	 4950 4680 5310 3645
2 1 1 2 0 7 55 -1 -1 6.000 0 0 -1 0 0 2
	 5985 4275 6705 4275
2 1 0 2 32 7 60 -1 -1 0.000 0 0 -1 0 0 2
	 4275 3150 4275 5175
2 1 0 2 32 7 60 -1 -1 0.000 0 0 -1 0 0 2
	 4725 3150 4725 5175
2 1 0 2 32 7 60 -1 -1 0.000 0 0 -1 0 0 2
	 4950 3150 4950 5175
2 1 0 2 0 7 50 -1 -1 0.000 0 0 -1 0 0 3
	 7830 3375 7920 3600 8235 3600
2 1 0 2 0 7 45 -1 -1 6.000 0 0 -1 1 0 2
	1 1 2.00 60.00 60.00
	 7200 3645 7380 4140
2 1 0 2 0 7 45 -1 -1 6.000 0 0 -1 1 0 2
	1 1 2.00 60.00 60.00
	 7425 4005 7785 3420
2 1 0 2 0 7 50 -1 -1 0.000 0 0 -1 0 0 3
	 6930 4950 7020 4725 7695 4725
2 1 0 2 32 7 60 -1 -1 0.000 0 0 -1 0 0 2
	 7200 3150 7200 5175
2 1 0 2 32 7 60 -1 -1 0.000 0 0 -1 0 0 2
	 7425 3150 7425 5175
4 0 0 55 -1 18 12 0.0000 4 150 510 3150 4905 nSEL\001
4 0 0 55 -1 18 12 0.0000 4 150 540 3150 4230 nREQ\001
4 0 0 55 -1 18 12 0.0000 4 150 435 3150 3555 nINT\001
4 1 0 45 -1 18 12 0.0000 4 135 105 3825 3060 1\001
4 1 0 45 -1 18 12 0.0000 4 135 105 4320 3735 2\001
4 1 0 45 -1 18 12 0.0000 4 135 105 4950 4140 3\001
4 1 0 45 -1 18 12 0.0000 4 135 105 5175 4590 4\001
4 1 0 45 -1 18 12 0.0000 4 135 105 7155 4005 5\001
4 1 0 45 -1 18 12 0.0000 4 135 105 7695 3870 6\001
