#FIG 3.2  Produced by xfig version 3.2.5b
Landscape
Center
Metric
A4      
100.00
Single
-2
1200 2
2 1 0 2 0 7 50 -1 -1 0.000 0 0 -1 1 0 2
	1 1 2.00 60.00 60.00
	 6525 5175 4725 5175
2 1 0 2 0 7 50 -1 -1 0.000 0 0 -1 1 0 2
	1 1 2.00 60.00 60.00
	 4725 5625 6525 5625
2 1 0 2 0 7 50 -1 -1 0.000 0 0 -1 1 0 2
	1 1 2.00 60.00 60.00
	 6525 6075 4725 6075
2 1 0 2 0 7 50 -1 -1 0.000 0 0 -1 1 0 2
	1 1 2.00 60.00 60.00
	 6525 6525 4725 6525
2 1 0 2 0 7 50 -1 -1 0.000 0 0 -1 0 0 4
	 7695 3600 6525 3600 6525 6975 7650 6975
2 1 0 2 0 7 50 -1 -1 0.000 0 0 -1 0 0 4
	 3600 3600 4725 3600 4725 6975 3600 6975
2 1 0 2 0 7 50 -1 -1 0.000 0 0 -1 1 0 2
	1 1 2.00 60.00 60.00
	 6525 4500 4725 4500
2 1 0 2 0 7 50 -1 -1 0.000 0 0 -1 1 0 2
	1 1 2.00 60.00 60.00
	 4725 4050 6525 4050
4 1 0 50 -1 18 12 0.0000 4 150 510 5625 5130 MOSI\001
4 1 0 50 -1 18 12 0.0000 4 150 525 5625 6030 SCLK\001
4 1 0 50 -1 18 12 0.0000 4 150 510 5625 6480 nSEL\001
4 1 0 50 -1 18 12 0.0000 4 150 510 5625 5580 MISO\001
4 2 0 50 -1 18 12 0.0000 4 150 510 4410 5580 Slave\001
4 0 0 50 -1 18 12 0.0000 4 150 615 6840 5580 Master\001
4 1 0 50 -1 18 12 0.0000 4 180 885 5625 4005 nINT (DD)\001
4 1 0 50 -1 18 12 0.0000 4 180 990 5625 4455 nREQ (DC)\001
