#FIG 3.2  Produced by xfig version 3.2.5c
Landscape
Center
Metric
A4      
100.00
Single
-2
1200 2
5 1 0 3 0 7 55 -1 -1 0.000 0 1 0 0 5557.500 2362.500 5535 2115 5310 2340 5535 2610
2 1 0 1 0 7 50 -1 -1 0.000 0 0 -1 0 0 2
	 1350 1125 2250 1125
2 1 0 1 0 7 50 -1 -1 0.000 0 0 -1 0 0 2
	 1350 1575 2250 1575
2 1 0 1 0 7 50 -1 -1 0.000 0 0 -1 0 0 2
	 1350 2025 2250 2025
2 1 0 1 0 7 50 -1 -1 0.000 0 0 -1 0 0 2
	 1350 3600 2250 3600
2 3 0 2 0 7 50 -1 45 0.000 0 0 -1 0 0 5
	 8010 4185 8010 3690 3240 3690 3240 4185 8010 4185
2 2 0 2 0 7 50 -1 -1 0.000 0 0 -1 0 0 5
	 4500 3150 5850 3150 5850 3690 4500 3690 4500 3150
2 1 0 1 0 7 50 -1 -1 0.000 0 0 -1 0 0 2
	 9000 4275 9900 4275
2 1 0 1 0 7 50 -1 -1 0.000 0 0 -1 0 0 2
	 9000 6075 9900 6075
2 1 0 3 0 7 50 -1 -1 0.000 0 0 -1 0 0 10
	 4050 6525 6525 6525 6525 5625 7650 5625 7650 4275 8145 4275
	 8145 4950 8775 4950 8775 6975 4050 6975
2 1 0 1 0 7 50 -1 -1 0.000 0 0 -1 0 0 2
	 9000 6525 9900 6525
2 1 0 1 0 7 50 -1 -1 0.000 0 0 -1 0 0 2
	 9000 5175 9900 5175
2 2 0 2 0 7 50 -1 -1 0.000 0 0 7 0 0 5
	 5400 4185 6300 4185 6300 5310 5400 5310 5400 4185
2 2 0 2 0 7 50 -1 -1 0.000 0 0 -1 0 0 5
	 5625 4500 6075 4500 6075 5175 5625 5175 5625 4500
2 2 0 2 0 7 50 -1 -1 0.000 0 0 -1 0 0 5
	 5670 4545 5850 4545 5850 5130 5670 5130 5670 4545
2 2 0 2 0 7 45 -1 20 0.000 0 0 -1 0 0 5
	 3825 6075 4950 6075 4950 4050 3825 4050 3825 6075
2 1 0 1 0 7 50 -1 -1 0.000 0 0 -1 0 0 2
	 9000 6975 9900 6975
2 2 0 2 0 7 55 -1 -1 0.000 0 0 7 0 0 5
	 7425 2160 6525 2160 6525 5535 7425 5535 7425 2160
2 1 0 1 0 7 50 -1 -1 0.000 0 0 -1 0 0 2
	 9000 4950 9900 4950
2 1 0 1 0 7 50 -1 -1 0.000 0 0 -1 0 0 2
	 9000 5625 9900 5625
2 1 0 1 0 7 50 -1 -1 0.000 0 0 7 1 0 2
	1 1 1.00 45.00 30.00
	 8055 5625 7740 5625
2 1 0 1 0 7 50 -1 -1 0.000 0 0 7 1 0 2
	1 1 1.00 45.00 30.00
	 6435 5175 6165 5175
2 1 0 1 0 7 50 -1 -1 0.000 0 0 7 0 1 2
	1 1 1.00 45.00 30.00
	 4635 2025 4275 2025
2 1 0 1 0 7 50 -1 -1 0.000 0 0 7 1 0 2
	1 1 1.00 45.00 30.00
	 5400 6075 5040 6075
2 1 0 1 0 7 50 -1 -1 0.000 0 0 7 0 1 2
	1 1 1.00 45.00 30.00
	 5535 4500 5175 4500
2 2 0 2 0 7 50 -1 45 0.000 0 0 -1 0 0 5
	 6300 1710 8010 1710 8010 2160 6300 2160 6300 1710
2 1 0 1 0 7 50 -1 -1 0.000 0 0 -1 0 0 2
	 1350 4860 2250 4860
2 1 0 1 0 7 50 -1 -1 0.000 0 0 -1 0 0 2
	 450 4185 2250 4185
2 1 0 1 0 7 50 -1 -1 0.000 0 0 -1 0 0 2
	 1350 4500 2250 4500
2 1 0 1 0 7 50 -1 -1 0.000 0 0 -1 0 0 4
	 450 3825 1215 3825 1350 4050 2250 4050
2 3 0 3 0 7 50 -1 -1 0.000 0 0 -1 0 0 21
	 8235 4860 8775 4860 8775 1125 2475 1125 2475 4860 3015 4860
	 3015 4185 3150 4185 3150 3600 3825 3600 3825 1575 4725 1575
	 4725 2475 5175 2475 5175 2025 5625 2025 5625 1575 8100 1575
	 8100 4185 8235 4185 8235 4860
2 1 0 2 0 7 55 -1 -1 0.000 0 0 -1 0 0 4
	 6075 1665 5715 1665 5715 2475 6075 2475
2 1 0 1 0 7 50 -1 -1 0.000 0 0 7 0 1 2
	1 1 1.00 45.00 30.00
	 4635 2475 4275 2475
2 1 0 3 0 7 55 -1 -1 0.000 0 0 -1 0 0 2
	 5535 2115 5715 2115
2 1 0 3 0 7 55 -1 -1 0.000 0 0 -1 0 0 2
	 5535 2610 6075 2610
2 1 0 1 0 7 50 -1 -1 0.000 0 0 -1 0 0 2
	 1350 2475 2250 2475
2 1 0 3 4 7 50 -1 -1 0.000 0 0 -1 0 0 4
	 6300 1485 6300 1350 8100 1350 8100 1575
2 1 0 2 4 7 50 -1 -1 0.000 0 0 -1 0 0 2
	 8235 1440 9405 1440
2 1 0 5 20 7 10 -1 -1 0.000 0 0 -1 0 0 2
	 9855 1800 10800 1080
2 1 0 5 20 7 10 -1 -1 0.000 0 0 -1 0 0 2
	 900 1845 1485 1305
2 1 0 5 20 7 10 -1 -1 0.000 0 0 -1 0 0 2
	 810 2295 1395 1755
2 1 0 5 20 7 10 -1 -1 0.000 0 0 -1 0 0 2
	 990 2655 1575 2115
4 0 0 50 -1 22 12 0.0000 4 135 585 1575 1395 surface\001
4 0 0 50 -1 22 12 0.0000 4 135 600 1575 1845 window\001
4 2 0 50 -1 22 12 0.0000 4 135 225 1305 3645 1.8\001
4 2 0 50 -1 22 12 0.0000 4 135 225 1305 1620 4.3\001
4 2 0 50 -1 22 12 0.0000 4 135 225 1305 1170 5.8\001
4 0 0 50 -1 22 12 0.0000 4 135 255 9225 5445 bat\001
4 0 0 50 -1 22 12 0.0000 4 135 300 9225 5895 usb\001
4 0 0 50 -1 22 12 0.0000 4 135 225 9945 4320 0.0\001
4 0 0 50 -1 22 12 0.0000 4 135 225 9945 5220 1.2\001
4 0 0 50 -1 22 12 0.0000 4 135 225 9945 5670 2.7\001
4 0 0 50 -1 22 12 0.0000 4 135 225 9945 6120 2.9\001
4 0 0 50 -1 22 12 0.0000 4 135 225 9945 6570 3.0\001
4 0 0 50 -1 22 12 0.0000 4 135 225 9945 7020 4.0\001
4 0 0 50 -1 22 12 0.0000 4 135 375 9225 6345 floor\001
4 0 0 50 -1 22 12 0.0000 4 135 585 9225 6795 surface\001
4 1 0 40 -1 22 14 0.0000 4 180 375 6975 3015 Batt\001
4 1 0 40 -1 22 14 0.0000 4 225 570 5175 3510 Comp\001
4 1 0 40 -1 22 14 0.0000 4 180 435 4365 5220 USB\001
4 1 0 40 -1 22 14 0.0000 4 180 630 5850 5580 Switch\001
4 0 0 50 -1 22 12 0.0000 4 135 510 9225 5130 switch\001
4 0 0 50 -1 22 12 0.0000 4 135 225 9945 4995 0.8\001
4 0 0 50 -1 22 12 0.0000 4 135 255 9225 4680 rim\001
4 2 0 50 -1 22 12 0.0000 4 135 225 1305 4950 0.0\001
4 0 0 40 -1 22 20 0.0000 4 315 4830 4050 675 Stacking of 3D model for Anelok case\001
4 0 0 40 -1 22 14 0.0000 4 225 2715 4275 7875 NOT to scale in any direction\001
4 0 0 40 -1 22 14 0.0000 4 225 480 1575 5400 top_*\001
4 0 0 40 -1 22 14 0.0000 4 210 480 9270 3960 bot_*\001
4 0 0 50 -1 22 12 0.0000 4 180 300 1575 3870 pcb\001
4 2 0 50 -1 22 12 0.0000 4 135 225 405 4230 1.0\001
4 0 0 50 -1 22 12 0.0000 4 135 510 1530 4725 switch\001
4 2 0 50 -1 22 12 0.0000 4 135 225 1305 4545 1.0\001
4 0 0 50 -1 22 12 0.0000 4 135 300 1575 4410 usb\001
4 2 0 50 -1 22 12 0.0000 4 135 225 405 3870 1.5\001
4 0 0 50 -1 22 12 0.0000 4 180 600 585 4050 pcbusb\001
4 1 0 40 -1 22 14 1.5708 4 180 555 6030 2070 OLED\001
4 1 0 40 -1 22 14 0.0000 4 180 405 5850 2880 FPC\001
4 0 0 50 -1 22 12 0.0000 4 135 405 1575 2295 bezel\001
4 2 0 50 -1 22 12 0.0000 4 135 225 1305 2520 2.8\001
4 0 0 50 -1 22 12 0.0000 4 150 450 1575 3105 comp\001
4 2 0 50 -1 22 12 0.0000 4 135 225 1305 2070 3.8\001
4 0 4 40 -1 22 14 0.0000 4 225 2565 9540 1530 Raise sub-board by 0.5 mm\001
4 1 20 50 -1 22 15 0.0000 4 180 300 720 1620 4.8\001
4 1 20 50 -1 22 15 0.0000 4 180 300 585 2070 4.3\001
4 1 20 50 -1 22 15 0.0000 4 180 300 630 2565 3.3\001
