EESchema Schematic File Version 2
LIBS:pwr
LIBS:r
LIBS:c
LIBS:led
LIBS:powered
LIBS:kl25-48
LIBS:memcard8
LIBS:micro_usb_b
LIBS:varistor
LIBS:pmosfet-gsd
LIBS:antenna
LIBS:er-oled-fpc30
LIBS:at86rf231
LIBS:balun-smt6
LIBS:xtal-4
LIBS:testpoint
LIBS:tswa
LIBS:device_sot
LIBS:gencon
LIBS:aat1217
LIBS:inductor
LIBS:switch
LIBS:anelok-cache
EELAYER 24 0
EELAYER END
$Descr A4 11693 8268
encoding utf-8
Sheet 4 5
Title "Anelok Password Safe"
Date "5 oct 2013"
Rev ""
Comp "Werner Almesberger"
Comment1 ""
Comment2 ""
Comment3 ""
Comment4 ""
$EndDescr
$Comp
L MEMCARD8-SHIELD3-SW1 CON3
U 1 1 5235E012
P 7050 4550
F 0 "CON3" H 6950 5050 60  0000 L CNN
F 1 "101-00660-68-6" H 7300 4100 60  0000 C CNN
F 2 "" H 7050 4550 60  0000 C CNN
F 3 "" H 7050 4550 60  0000 C CNN
	1    7050 4550
	1    0    0    -1  
$EndComp
$Comp
L PMOSFET-GSD Q2
U 1 1 5235EA37
P 4900 3550
F 0 "Q2" H 4650 3250 60  0000 C CNN
F 1 "NTS2101P" H 4600 3850 60  0000 C CNN
F 2 "" H 4900 3550 60  0000 C CNN
F 3 "" H 4900 3550 60  0000 C CNN
	1    4900 3550
	1    0    0    1   
$EndComp
Wire Wire Line
	5000 4450 6700 4450
Wire Wire Line
	5000 4450 5000 3950
$Comp
L GND #PWR041
U 1 1 5235EA65
P 5000 5000
F 0 "#PWR041" H 5000 5000 30  0001 C CNN
F 1 "GND" H 5000 4930 30  0001 C CNN
F 2 "" H 5000 5000 60  0000 C CNN
F 3 "" H 5000 5000 60  0000 C CNN
	1    5000 5000
	1    0    0    -1  
$EndComp
$Comp
L GND #PWR042
U 1 1 5235EA72
P 8100 5050
F 0 "#PWR042" H 8100 5050 30  0001 C CNN
F 1 "GND" H 8100 4980 30  0001 C CNN
F 2 "" H 8100 5050 60  0000 C CNN
F 3 "" H 8100 5050 60  0000 C CNN
	1    8100 5050
	1    0    0    -1  
$EndComp
Wire Wire Line
	7950 4650 8100 4650
Wire Wire Line
	8100 4650 8100 5050
Wire Wire Line
	7950 4750 8100 4750
Connection ~ 8100 4750
$Comp
L R R3
U 1 1 5235EA82
P 8950 4850
F 0 "R3" H 9080 4900 60  0000 C CNN
F 1 "0" H 9100 4800 60  0000 C CNN
F 2 "" H 8950 4850 60  0000 C CNN
F 3 "" H 8950 4850 60  0000 C CNN
	1    8950 4850
	0    -1   -1   0   
$EndComp
$Comp
L GND #PWR043
U 1 1 5235EA8F
P 9400 5050
F 0 "#PWR043" H 9400 5050 30  0001 C CNN
F 1 "GND" H 9400 4980 30  0001 C CNN
F 2 "" H 9400 5050 60  0000 C CNN
F 3 "" H 9400 5050 60  0000 C CNN
	1    9400 5050
	1    0    0    -1  
$EndComp
Wire Wire Line
	7950 4850 8700 4850
Wire Wire Line
	9200 4850 9400 4850
Wire Wire Line
	9400 4850 9400 5050
Wire Wire Line
	6700 4650 5000 4650
Wire Wire Line
	5000 4650 5000 5000
Text GLabel 4300 4550 0    60   Input ~ 0
CARD_CLK
Text GLabel 4300 4700 0    60   3State ~ 0
CARD_DAT0
Text GLabel 4300 4850 0    60   BiDi ~ 0
CARD_DAT1
Text GLabel 4300 4400 0    60   BiDi ~ 0
CARD_CMD
Text GLabel 4300 4250 0    60   BiDi ~ 0
CARD_DAT3
Text GLabel 4300 4100 0    60   BiDi ~ 0
CARD_DAT2
Wire Wire Line
	4300 4550 6700 4550
Wire Wire Line
	4300 4700 4500 4700
Wire Wire Line
	4500 4700 4500 4750
Wire Wire Line
	4500 4750 6700 4750
Wire Wire Line
	4300 4850 6700 4850
Wire Wire Line
	4300 4400 4500 4400
Wire Wire Line
	4500 4400 4500 4350
Wire Wire Line
	4500 4350 6700 4350
Wire Wire Line
	4300 4250 6700 4250
Wire Wire Line
	4300 4100 4500 4100
Wire Wire Line
	4500 4100 4500 4150
Wire Wire Line
	4500 4150 6700 4150
Text GLabel 4300 3550 0    60   Input ~ 0
CARD_OFF
Wire Wire Line
	4300 3550 4600 3550
Text GLabel 8300 4150 2    60   Output ~ 0
CARD_SW
Wire Wire Line
	7950 4150 8300 4150
$Comp
L 3V3 #PWR044
U 1 1 5235ECA6
P 5000 2950
F 0 "#PWR044" H 5000 2910 30  0001 C CNN
F 1 "3V3" H 5000 3100 60  0000 C CNN
F 2 "" H 5000 2950 60  0000 C CNN
F 3 "" H 5000 2950 60  0000 C CNN
	1    5000 2950
	1    0    0    -1  
$EndComp
Wire Wire Line
	5000 2950 5000 3150
Text Notes 850  1200 0    200  ~ 40
Memory card
$Comp
L POWERED #FLG045
U 1 1 523D3990
P 8500 4500
F 0 "#FLG045" H 8700 4400 60  0001 C CNN
F 1 "POWERED" H 8500 4550 60  0000 C CNN
F 2 "" H 8500 4500 60  0000 C CNN
F 3 "" H 8500 4500 60  0000 C CNN
	1    8500 4500
	1    0    0    -1  
$EndComp
Wire Wire Line
	8500 4700 8500 4850
Connection ~ 8500 4850
$Comp
L TESTPOINT TP13
U 1 1 524F47B8
P 5600 3800
F 0 "TP13" H 5600 4050 60  0000 C CNN
F 1 "TESTPOINT" H 5600 3750 60  0001 C CNN
F 2 "" H 5600 3800 60  0000 C CNN
F 3 "" H 5600 3800 60  0000 C CNN
	1    5600 3800
	1    0    0    -1  
$EndComp
Wire Wire Line
	5600 3800 5600 4450
Connection ~ 5600 4450
Text Label 5800 4450 0    60   ~ 0
CARD_VDD
$EndSCHEMATC
