EESchema Schematic File Version 2
LIBS:pwr
LIBS:r
LIBS:c
LIBS:led
LIBS:powered
LIBS:kl25-48
LIBS:memcard8
LIBS:micro_usb_b
LIBS:varistor
LIBS:pmosfet-gsd
LIBS:antenna
LIBS:er-oled-fpc30
LIBS:at86rf231
LIBS:balun-smt6
LIBS:xtal-4
LIBS:testpoint
LIBS:tswa
LIBS:device_sot
LIBS:gencon
LIBS:aat1217
LIBS:inductor
LIBS:switch
LIBS:anelok-cache
EELAYER 24 0
EELAYER END
$Descr A4 11693 8268
encoding utf-8
Sheet 2 5
Title "Anelok Password Safe"
Date "9 oct 2013"
Rev ""
Comp "Werner Almesberger"
Comment1 ""
Comment2 ""
Comment3 ""
Comment4 ""
$EndDescr
Wire Wire Line
	7100 2400 6900 2400
Wire Wire Line
	6900 2400 6900 5500
$Comp
L GND #PWR011
U 1 1 5235E2BE
P 6900 5500
F 0 "#PWR011" H 6900 5500 30  0001 C CNN
F 1 "GND" H 6900 5430 30  0001 C CNN
F 2 "" H 6900 5500 60  0000 C CNN
F 3 "" H 6900 5500 60  0000 C CNN
	1    6900 5500
	1    0    0    -1  
$EndComp
Wire Wire Line
	7100 3100 6900 3100
Connection ~ 6900 3100
Wire Wire Line
	7100 3300 6900 3300
Connection ~ 6900 3300
Wire Wire Line
	7100 3400 6900 3400
Connection ~ 6900 3400
Wire Wire Line
	7100 3500 6900 3500
Connection ~ 6900 3500
Wire Wire Line
	7100 5200 6900 5200
Connection ~ 6900 5200
NoConn ~ 7100 4300
Wire Wire Line
	7100 4400 6900 4400
Connection ~ 6900 4400
Wire Wire Line
	7100 4500 6900 4500
Connection ~ 6900 4500
Wire Wire Line
	7100 4600 6900 4600
Connection ~ 6900 4600
Wire Wire Line
	7100 4700 6900 4700
Connection ~ 6900 4700
Wire Wire Line
	7100 4800 6900 4800
Connection ~ 6900 4800
$Comp
L R R1
U 1 1 5235E35C
P 6500 5550
F 0 "R1" H 6630 5600 60  0000 C CNN
F 1 "82" H 6650 5500 60  0000 C CNN
F 2 "" H 6500 5550 60  0000 C CNN
F 3 "" H 6500 5550 60  0000 C CNN
	1    6500 5550
	1    0    0    -1  
$EndComp
$Comp
L R R2
U 1 1 5235E36B
P 6500 6250
F 0 "R2" H 6630 6300 60  0000 C CNN
F 1 "680" H 6650 6200 60  0000 C CNN
F 2 "" H 6500 6250 60  0000 C CNN
F 3 "" H 6500 6250 60  0000 C CNN
	1    6500 6250
	1    0    0    -1  
$EndComp
$Comp
L GND #PWR012
U 1 1 5235E396
P 6500 6700
F 0 "#PWR012" H 6500 6700 30  0001 C CNN
F 1 "GND" H 6500 6630 30  0001 C CNN
F 2 "" H 6500 6700 60  0000 C CNN
F 3 "" H 6500 6700 60  0000 C CNN
	1    6500 6700
	1    0    0    -1  
$EndComp
Wire Wire Line
	7100 4900 6500 4900
Wire Wire Line
	6500 4900 6500 5300
Wire Wire Line
	6500 5800 6500 6000
Wire Wire Line
	6500 6500 6500 6700
Wire Wire Line
	7100 3900 6900 3900
Connection ~ 6900 3900
Wire Wire Line
	7100 4000 6900 4000
Connection ~ 6900 4000
$Comp
L C C5
U 1 1 5235E437
P 5400 5500
F 0 "C5" H 5450 5600 60  0000 L CNN
F 1 "4.7uF" H 5450 5400 60  0000 L CNN
F 2 "" H 5400 5500 60  0000 C CNN
F 3 "" H 5400 5500 60  0000 C CNN
F 4 "16V" H 5550 5300 60  0000 C CNN "V"
	1    5400 5500
	1    0    0    -1  
$EndComp
Wire Wire Line
	7100 5100 5900 5100
Wire Wire Line
	5900 4900 5900 5300
Wire Wire Line
	7100 5000 5400 5000
Wire Wire Line
	5400 5000 5400 5300
$Comp
L GND #PWR013
U 1 1 5235E47D
P 5900 5900
F 0 "#PWR013" H 5900 5900 30  0001 C CNN
F 1 "GND" H 5900 5830 30  0001 C CNN
F 2 "" H 5900 5900 60  0000 C CNN
F 3 "" H 5900 5900 60  0000 C CNN
	1    5900 5900
	1    0    0    -1  
$EndComp
$Comp
L GND #PWR014
U 1 1 5235E483
P 5400 5900
F 0 "#PWR014" H 5400 5900 30  0001 C CNN
F 1 "GND" H 5400 5830 30  0001 C CNN
F 2 "" H 5400 5900 60  0000 C CNN
F 3 "" H 5400 5900 60  0000 C CNN
	1    5400 5900
	1    0    0    -1  
$EndComp
Wire Wire Line
	5400 5700 5400 5900
Wire Wire Line
	5900 5700 5900 5900
$Comp
L C C6
U 1 1 5235E51A
P 5900 5500
F 0 "C6" H 5950 5600 60  0000 L CNN
F 1 "2.2uF" H 5950 5400 60  0000 L CNN
F 2 "" H 5900 5500 60  0000 C CNN
F 3 "" H 5900 5500 60  0000 C CNN
F 4 "16V" H 6050 5300 60  0000 C CNN "V"
	1    5900 5500
	1    0    0    -1  
$EndComp
Text GLabel 6700 4100 0    60   Input ~ 0
DISP_SCLK
Text GLabel 6700 4250 0    60   Input ~ 0
DISP_SDIN
Wire Wire Line
	6700 4100 7100 4100
Wire Wire Line
	6700 4250 6800 4250
Wire Wire Line
	6800 4250 6800 4200
Wire Wire Line
	6800 4200 7100 4200
Text GLabel 6700 3700 0    60   Input ~ 0
DISP_nRES
Text GLabel 6700 3850 0    60   Input ~ 0
DISP_DnC
Text GLabel 6700 3550 0    60   Input ~ 0
DISP_nCS
Wire Wire Line
	6700 3700 7100 3700
Wire Wire Line
	6700 3550 6800 3550
Wire Wire Line
	6800 3550 6800 3600
Wire Wire Line
	6800 3600 7100 3600
Wire Wire Line
	6700 3850 6800 3850
Wire Wire Line
	6800 3850 6800 3800
Wire Wire Line
	6800 3800 7100 3800
$Comp
L C C1
U 1 1 5235E5FB
P 6450 2300
F 0 "C1" H 6500 2400 60  0000 L CNN
F 1 "1uF" H 6500 2200 60  0000 L CNN
F 2 "" H 6450 2300 60  0000 C CNN
F 3 "" H 6450 2300 60  0000 C CNN
	1    6450 2300
	1    0    0    -1  
$EndComp
$Comp
L C C2
U 1 1 5235E614
P 5900 2500
F 0 "C2" H 5950 2600 60  0000 L CNN
F 1 "1uF" H 5950 2400 60  0000 L CNN
F 2 "" H 5900 2500 60  0000 C CNN
F 3 "" H 5900 2500 60  0000 C CNN
	1    5900 2500
	1    0    0    -1  
$EndComp
Wire Wire Line
	7100 2500 6750 2500
Wire Wire Line
	6750 2500 6750 2000
Wire Wire Line
	6750 2000 6450 2000
Wire Wire Line
	6450 2000 6450 2100
Wire Wire Line
	7100 2600 6450 2600
Wire Wire Line
	6450 2600 6450 2500
Wire Wire Line
	7100 2700 6200 2700
Wire Wire Line
	6200 2700 6200 2200
Wire Wire Line
	6200 2200 5900 2200
Wire Wire Line
	5900 2200 5900 2300
Wire Wire Line
	7100 2800 5900 2800
Wire Wire Line
	5900 2800 5900 2700
$Comp
L C C4
U 1 1 5235E707
P 5300 3500
F 0 "C4" H 5350 3600 60  0000 L CNN
F 1 "1uF" H 5350 3400 60  0000 L CNN
F 2 "" H 5300 3500 60  0000 C CNN
F 3 "" H 5300 3500 60  0000 C CNN
	1    5300 3500
	1    0    0    -1  
$EndComp
$Comp
L C C3
U 1 1 5235E723
P 4900 3500
F 0 "C3" H 4950 3600 60  0000 L CNN
F 1 "1uF" H 4950 3400 60  0000 L CNN
F 2 "" H 4900 3500 60  0000 C CNN
F 3 "" H 4900 3500 60  0000 C CNN
	1    4900 3500
	1    0    0    -1  
$EndComp
Wire Wire Line
	7100 3200 5300 3200
Wire Wire Line
	7100 2900 4900 2900
Wire Wire Line
	4900 2800 4900 3300
$Comp
L GND #PWR015
U 1 1 5235E7AF
P 5300 3800
F 0 "#PWR015" H 5300 3800 30  0001 C CNN
F 1 "GND" H 5300 3730 30  0001 C CNN
F 2 "" H 5300 3800 60  0000 C CNN
F 3 "" H 5300 3800 60  0000 C CNN
	1    5300 3800
	1    0    0    -1  
$EndComp
$Comp
L GND #PWR016
U 1 1 5235E7B5
P 4900 3800
F 0 "#PWR016" H 4900 3800 30  0001 C CNN
F 1 "GND" H 4900 3730 30  0001 C CNN
F 2 "" H 4900 3800 60  0000 C CNN
F 3 "" H 4900 3800 60  0000 C CNN
	1    4900 3800
	1    0    0    -1  
$EndComp
Wire Wire Line
	5300 3700 5300 3800
Wire Wire Line
	4900 3700 4900 3800
$Comp
L 3V3 #PWR017
U 1 1 5235E880
P 4900 2800
F 0 "#PWR017" H 4900 2760 30  0001 C CNN
F 1 "3V3" H 4900 2950 60  0000 C CNN
F 2 "" H 4900 2800 60  0000 C CNN
F 3 "" H 4900 2800 60  0000 C CNN
	1    4900 2800
	1    0    0    -1  
$EndComp
Connection ~ 4900 2900
$Comp
L TSWA SW1
U 1 1 523609B4
P 3250 5350
F 0 "SW1" H 3200 5650 60  0000 C CNN
F 1 "TSWA-3N-CB11 LFS" H 3250 5050 60  0000 C CNN
F 2 "~" H 3250 5350 60  0000 C CNN
F 3 "~" H 3250 5350 60  0000 C CNN
	1    3250 5350
	1    0    0    -1  
$EndComp
$Comp
L GND #PWR018
U 1 1 523609C3
P 3900 5700
F 0 "#PWR018" H 3900 5700 30  0001 C CNN
F 1 "GND" H 3900 5630 30  0001 C CNN
F 2 "" H 3900 5700 60  0000 C CNN
F 3 "" H 3900 5700 60  0000 C CNN
	1    3900 5700
	1    0    0    -1  
$EndComp
Wire Wire Line
	3700 5500 3900 5500
Wire Wire Line
	3900 5500 3900 5700
Text GLabel 2600 5200 0    60   Output ~ 0
WHEEL_CENTER
Text GLabel 2600 5350 0    60   Output ~ 0
WHEEL_A
Text GLabel 2600 5500 0    60   Output ~ 0
WHEEL_B
Wire Wire Line
	2600 5200 2800 5200
Wire Wire Line
	2600 5350 2800 5350
Wire Wire Line
	2600 5500 2800 5500
$Comp
L LED D1
U 1 1 5236121F
P 3200 3600
F 0 "D1" H 3200 3700 60  0000 C CNN
F 1 "LTST-C190KRKT" H 3200 3450 60  0000 C CNN
F 2 "" H 3200 3600 60  0000 C CNN
F 3 "" H 3200 3600 60  0000 C CNN
	1    3200 3600
	0    -1   1    0   
$EndComp
$Comp
L R R4
U 1 1 52361225
P 3200 2950
F 0 "R4" H 3330 3000 60  0000 C CNN
F 1 "120" H 3350 2900 60  0000 C CNN
F 2 "" H 3200 2950 60  0000 C CNN
F 3 "" H 3200 2950 60  0000 C CNN
	1    3200 2950
	1    0    0    -1  
$EndComp
Wire Wire Line
	3200 3200 3200 3400
$Comp
L GND #PWR019
U 1 1 5236122C
P 3200 4000
F 0 "#PWR019" H 3200 4000 30  0001 C CNN
F 1 "GND" H 3200 3930 30  0001 C CNN
F 2 "" H 3200 4000 60  0000 C CNN
F 3 "" H 3200 4000 60  0000 C CNN
	1    3200 4000
	1    0    0    -1  
$EndComp
Wire Wire Line
	3200 3800 3200 4000
Text GLabel 3000 2500 0    60   Input ~ 0
LED
Wire Wire Line
	3000 2500 3200 2500
Wire Wire Line
	3200 2500 3200 2700
Text Notes 900  1150 0    200  ~ 40
User Interface
$Comp
L ER-OLED-FPC30 CON1
U 1 1 5236C9B8
P 7400 3850
F 0 "CON1" H 7500 5500 60  0000 C CNN
F 1 "ER-OLED013-1" H 7550 2200 60  0000 C CNN
F 2 "~" H 7500 3850 60  0000 C CNN
F 3 "~" H 7500 3850 60  0000 C CNN
	1    7400 3850
	1    0    0    -1  
$EndComp
Wire Wire Line
	7100 5300 6900 5300
Connection ~ 6900 5300
$Comp
L POWERED #FLG020
U 1 1 523D3752
P 5900 4700
F 0 "#FLG020" H 6100 4600 60  0001 C CNN
F 1 "POWERED" H 5900 4750 60  0000 C CNN
F 2 "" H 5900 4700 60  0000 C CNN
F 3 "" H 5900 4700 60  0000 C CNN
	1    5900 4700
	1    0    0    -1  
$EndComp
Connection ~ 5900 5100
Wire Wire Line
	5300 2800 5300 3300
$Comp
L 3V3 #PWR021
U 1 1 523D380C
P 5300 2800
F 0 "#PWR021" H 5300 2760 30  0001 C CNN
F 1 "3V3" H 5300 2950 60  0000 C CNN
F 2 "" H 5300 2800 60  0000 C CNN
F 3 "" H 5300 2800 60  0000 C CNN
	1    5300 2800
	1    0    0    -1  
$EndComp
Connection ~ 5300 3200
$EndSCHEMATC
