EESchema Schematic File Version 2
LIBS:pwr
LIBS:r
LIBS:c
LIBS:led
LIBS:powered
LIBS:kl25-48
LIBS:memcard8
LIBS:micro_usb_b
LIBS:varistor
LIBS:pmosfet-gsd
LIBS:antenna
LIBS:er-oled-fpc30
LIBS:cc2543
LIBS:balun-smt6
LIBS:xtal-4
LIBS:testpoint
LIBS:nmosfet-gsd
LIBS:diode
LIBS:gencon
LIBS:aat1217
LIBS:inductor
LIBS:crystal
LIBS:switch
LIBS:anelok-cache
EELAYER 24 0
EELAYER END
$Descr A4 11693 8268
encoding utf-8
Sheet 2 6
Title "Anelok Password Safe"
Date "28 mar 2015"
Rev ""
Comp "Werner Almesberger"
Comment1 ""
Comment2 ""
Comment3 ""
Comment4 ""
$EndDescr
Text GLabel 8500 1700 2    60   Output ~ 0
VSYS
Text GLabel 3700 6200 2    60   Input ~ 0
PWR_EN
$Comp
L AAT1217 U2
U 1 1 5236563C
P 2150 4300
F 0 "U2" H 1950 4600 60  0000 C CNN
F 1 "AAT1217-3.3" H 2150 3950 60  0000 C CNN
F 2 "~" H 2150 4300 60  0000 C CNN
F 3 "~" H 2150 4300 60  0000 C CNN
	1    2150 4300
	1    0    0    -1  
$EndComp
$Comp
L INDUCTOR L1
U 1 1 5236564B
P 2150 3550
F 0 "L1" H 2150 3700 60  0000 C CNN
F 1 "4.7uH" H 2150 3450 60  0000 C CNN
F 2 "" H 2150 3550 60  0000 C CNN
F 3 "" H 2150 3550 60  0000 C CNN
F 4 "600mA" H 2150 3350 60  0000 C CNN "Imax"
	1    2150 3550
	1    0    0    -1  
$EndComp
$Comp
L C C7
U 1 1 5236565A
P 3600 4800
F 0 "C7" H 3650 4900 60  0000 L CNN
F 1 "4.7uF" H 3650 4700 60  0000 L CNN
F 2 "" H 3600 4800 60  0000 C CNN
F 3 "" H 3600 4800 60  0000 C CNN
	1    3600 4800
	1    0    0    -1  
$EndComp
$Comp
L C C8
U 1 1 52365667
P 4300 4800
F 0 "C8" H 4350 4900 60  0000 L CNN
F 1 "4.7uF" H 4350 4700 60  0000 L CNN
F 2 "" H 4300 4800 60  0000 C CNN
F 3 "" H 4300 4800 60  0000 C CNN
	1    4300 4800
	1    0    0    -1  
$EndComp
$Comp
L 3V3 #PWR015
U 1 1 523656A7
P 5100 3900
F 0 "#PWR015" H 5100 3860 30  0001 C CNN
F 1 "3V3" H 5100 4050 60  0000 C CNN
F 2 "" H 5100 3900 60  0000 C CNN
F 3 "" H 5100 3900 60  0000 C CNN
	1    5100 3900
	1    0    0    -1  
$EndComp
$Comp
L GND #PWR016
U 1 1 523656F9
P 4300 5200
F 0 "#PWR016" H 4300 5200 30  0001 C CNN
F 1 "GND" H 4300 5130 30  0001 C CNN
F 2 "" H 4300 5200 60  0000 C CNN
F 3 "" H 4300 5200 60  0000 C CNN
	1    4300 5200
	1    0    0    -1  
$EndComp
$Comp
L GND #PWR017
U 1 1 5236570F
P 3600 5200
F 0 "#PWR017" H 3600 5200 30  0001 C CNN
F 1 "GND" H 3600 5130 30  0001 C CNN
F 2 "" H 3600 5200 60  0000 C CNN
F 3 "" H 3600 5200 60  0000 C CNN
	1    3600 5200
	1    0    0    -1  
$EndComp
$Comp
L GND #PWR018
U 1 1 5236581E
P 700 5250
F 0 "#PWR018" H 700 5250 30  0001 C CNN
F 1 "GND" H 700 5180 30  0001 C CNN
F 2 "" H 700 5250 60  0000 C CNN
F 3 "" H 700 5250 60  0000 C CNN
	1    700  5250
	1    0    0    -1  
$EndComp
$Comp
L R R3
U 1 1 5236584B
P 4800 4650
F 0 "R3" H 4930 4700 60  0000 C CNN
F 1 "100" H 4950 4600 60  0000 C CNN
F 2 "" H 4800 4650 60  0000 C CNN
F 3 "" H 4800 4650 60  0000 C CNN
F 4 "1/10W" H 5050 4500 60  0000 C CNN "Field4"
	1    4800 4650
	1    0    0    -1  
$EndComp
$Comp
L C C9
U 1 1 52365858
P 4800 5500
F 0 "C9" H 4850 5600 60  0000 L CNN
F 1 "100uF" H 4850 5400 60  0000 L CNN
F 2 "" H 4800 5500 60  0000 C CNN
F 3 "" H 4800 5500 60  0000 C CNN
	1    4800 5500
	1    0    0    -1  
$EndComp
$Comp
L GND #PWR019
U 1 1 52365868
P 4800 5900
F 0 "#PWR019" H 4800 5900 30  0001 C CNN
F 1 "GND" H 4800 5830 30  0001 C CNN
F 2 "" H 4800 5900 60  0000 C CNN
F 3 "" H 4800 5900 60  0000 C CNN
	1    4800 5900
	1    0    0    -1  
$EndComp
Text GLabel 5300 4150 2    60   Input ~ 0
VSYS
$Comp
L R R6
U 1 1 52365966
P 1800 5350
F 0 "R6" H 1930 5400 60  0000 C CNN
F 1 "DNP" H 1950 5300 60  0000 C CNN
F 2 "" H 1800 5350 60  0000 C CNN
F 3 "" H 1800 5350 60  0000 C CNN
	1    1800 5350
	1    0    0    -1  
$EndComp
$Comp
L ZX62-B-5PA CON1
U 1 1 5236BC26
P 10150 4800
F 0 "CON1" H 10150 5300 60  0000 C CNN
F 1 "ZX62R-AB-5P" H 10150 4300 60  0000 C CNN
F 2 "" H 10150 4800 60  0000 C CNN
F 3 "" H 10150 4800 60  0000 C CNN
	1    10150 4800
	1    0    0    -1  
$EndComp
$Comp
L GND #PWR020
U 1 1 5236BC2C
P 10900 5300
F 0 "#PWR020" H 10900 5300 30  0001 C CNN
F 1 "GND" H 10900 5230 30  0001 C CNN
F 2 "" H 10900 5300 60  0000 C CNN
F 3 "" H 10900 5300 60  0000 C CNN
	1    10900 5300
	1    0    0    -1  
$EndComp
$Comp
L GND #PWR021
U 1 1 5236BC32
P 9350 5300
F 0 "#PWR021" H 9350 5300 30  0001 C CNN
F 1 "GND" H 9350 5230 30  0001 C CNN
F 2 "" H 9350 5300 60  0000 C CNN
F 3 "" H 9350 5300 60  0000 C CNN
	1    9350 5300
	1    0    0    -1  
$EndComp
Text GLabel 6450 4650 0    60   3State ~ 0
USB_DM
Text GLabel 6450 4800 0    60   3State ~ 0
USB_DP
Text GLabel 6450 4950 0    60   Output ~ 0
USB_ID
Text GLabel 6450 4500 0    60   Output ~ 0
USB_VBUS
$Comp
L VARISTOR V4
U 1 1 5236BC54
P 9000 5650
F 0 "V4" V 8900 5650 60  0000 C CNN
F 1 "EZJP0V080GA" V 9100 5650 60  0000 C CNN
F 2 "" H 9000 5650 60  0000 C CNN
F 3 "" H 9000 5650 60  0000 C CNN
	1    9000 5650
	1    0    0    -1  
$EndComp
$Comp
L VARISTOR V3
U 1 1 5236BC5A
P 8600 5650
F 0 "V3" V 8500 5650 60  0000 C CNN
F 1 "EZJP0V080GA" V 8700 5650 60  0000 C CNN
F 2 "" H 8600 5650 60  0000 C CNN
F 3 "" H 8600 5650 60  0000 C CNN
	1    8600 5650
	1    0    0    -1  
$EndComp
$Comp
L VARISTOR V2
U 1 1 5236BC60
P 8200 5650
F 0 "V2" V 8100 5650 60  0000 C CNN
F 1 "EZJP0V080GA" V 8300 5650 60  0000 C CNN
F 2 "" H 8200 5650 60  0000 C CNN
F 3 "" H 8200 5650 60  0000 C CNN
	1    8200 5650
	1    0    0    -1  
$EndComp
$Comp
L VARISTOR V1
U 1 1 5236BC66
P 7800 5650
F 0 "V1" V 7700 5650 60  0000 C CNN
F 1 "EZJP0V080GA" V 7900 5650 60  0000 C CNN
F 2 "" H 7800 5650 60  0000 C CNN
F 3 "" H 7800 5650 60  0000 C CNN
	1    7800 5650
	1    0    0    -1  
$EndComp
$Comp
L GND #PWR022
U 1 1 5236BC6C
P 9000 6000
F 0 "#PWR022" H 9000 6000 30  0001 C CNN
F 1 "GND" H 9000 5930 30  0001 C CNN
F 2 "" H 9000 6000 60  0000 C CNN
F 3 "" H 9000 6000 60  0000 C CNN
	1    9000 6000
	1    0    0    -1  
$EndComp
$Comp
L GND #PWR023
U 1 1 5236BC72
P 8600 6000
F 0 "#PWR023" H 8600 6000 30  0001 C CNN
F 1 "GND" H 8600 5930 30  0001 C CNN
F 2 "" H 8600 6000 60  0000 C CNN
F 3 "" H 8600 6000 60  0000 C CNN
	1    8600 6000
	1    0    0    -1  
$EndComp
$Comp
L GND #PWR024
U 1 1 5236BC78
P 8200 6000
F 0 "#PWR024" H 8200 6000 30  0001 C CNN
F 1 "GND" H 8200 5930 30  0001 C CNN
F 2 "" H 8200 6000 60  0000 C CNN
F 3 "" H 8200 6000 60  0000 C CNN
	1    8200 6000
	1    0    0    -1  
$EndComp
$Comp
L GND #PWR025
U 1 1 5236BC7E
P 7800 6000
F 0 "#PWR025" H 7800 6000 30  0001 C CNN
F 1 "GND" H 7800 5930 30  0001 C CNN
F 2 "" H 7800 6000 60  0000 C CNN
F 3 "" H 7800 6000 60  0000 C CNN
	1    7800 6000
	1    0    0    -1  
$EndComp
Text Notes 900  1150 0    200  ~ 40
Power + USB
$Comp
L POWERED #FLG026
U 1 1 523D393A
P 6600 4050
F 0 "#FLG026" H 6800 3950 60  0001 C CNN
F 1 "POWERED" H 6600 4100 60  0000 C CNN
F 2 "" H 6600 4050 60  0000 C CNN
F 3 "" H 6600 4050 60  0000 C CNN
	1    6600 4050
	1    0    0    -1  
$EndComp
$Comp
L TESTPOINT TP4
U 1 1 524DAF15
P 7000 1500
F 0 "TP4" H 7000 1750 60  0000 C CNN
F 1 "TESTPOINT" H 7000 1450 60  0001 C CNN
F 2 "" H 7000 1500 60  0000 C CNN
F 3 "" H 7000 1500 60  0000 C CNN
	1    7000 1500
	1    0    0    -1  
$EndComp
$Comp
L TESTPOINT TP6
U 1 1 524DAF24
P 1600 2200
F 0 "TP6" H 1600 2450 60  0000 C CNN
F 1 "TESTPOINT" H 1600 2150 60  0001 C CNN
F 2 "" H 1600 2200 60  0000 C CNN
F 3 "" H 1600 2200 60  0000 C CNN
	1    1600 2200
	1    0    0    -1  
$EndComp
$Comp
L GND #PWR027
U 1 1 524DAF33
P 1600 2400
F 0 "#PWR027" H 1600 2400 30  0001 C CNN
F 1 "GND" H 1600 2330 30  0001 C CNN
F 2 "" H 1600 2400 60  0000 C CNN
F 3 "" H 1600 2400 60  0000 C CNN
	1    1600 2400
	1    0    0    -1  
$EndComp
$Comp
L TESTPOINT TP5
U 1 1 524F4121
P 4600 3900
F 0 "TP5" H 4600 4150 60  0000 C CNN
F 1 "TESTPOINT" H 4600 3850 60  0001 C CNN
F 2 "" H 4600 3900 60  0000 C CNN
F 3 "" H 4600 3900 60  0000 C CNN
	1    4600 3900
	1    0    0    -1  
$EndComp
$Comp
L R R10
U 1 1 536CFBBF
P 8000 3250
F 0 "R10" H 8130 3300 60  0000 C CNN
F 1 "82k" H 8150 3200 60  0000 C CNN
F 2 "" H 8000 3250 60  0000 C CNN
F 3 "" H 8000 3250 60  0000 C CNN
	1    8000 3250
	1    0    0    -1  
$EndComp
$Comp
L GND #PWR028
U 1 1 536CFC64
P 8000 3600
F 0 "#PWR028" H 8000 3600 30  0001 C CNN
F 1 "GND" H 8000 3530 30  0001 C CNN
F 2 "" H 8000 3600 60  0000 C CNN
F 3 "" H 8000 3600 60  0000 C CNN
	1    8000 3600
	1    0    0    -1  
$EndComp
$Comp
L POWERED #FLG029
U 1 1 536E4E18
P 1100 2000
F 0 "#FLG029" H 1300 1900 60  0001 C CNN
F 1 "POWERED" H 1100 2050 60  0000 C CNN
F 2 "" H 1100 2000 60  0000 C CNN
F 3 "" H 1100 2000 60  0000 C CNN
	1    1100 2000
	1    0    0    -1  
$EndComp
$Comp
L GND #PWR030
U 1 1 536D4105
P 1100 2400
F 0 "#PWR030" H 1100 2400 30  0001 C CNN
F 1 "GND" H 1100 2330 30  0001 C CNN
F 2 "" H 1100 2400 60  0000 C CNN
F 3 "" H 1100 2400 60  0000 C CNN
	1    1100 2400
	1    0    0    -1  
$EndComp
$Comp
L GND #PWR031
U 1 1 536FB065
P 9500 3400
F 0 "#PWR031" H 9500 3400 30  0001 C CNN
F 1 "GND" H 9500 3330 30  0001 C CNN
F 2 "" H 9500 3400 60  0000 C CNN
F 3 "" H 9500 3400 60  0000 C CNN
	1    9500 3400
	1    0    0    -1  
$EndComp
Text GLabel 9800 2200 2    60   Output ~ 0
USB_nSENSE
$Comp
L NMOSFET-GSD Q2
U 1 1 536FB021
P 9400 2800
F 0 "Q2" H 9300 3100 60  0000 C CNN
F 1 "DMG1012T" H 9950 2650 60  0000 C CNN
F 2 "" H 9400 2800 60  0000 C CNN
F 3 "" H 9400 2800 60  0000 C CNN
	1    9400 2800
	1    0    0    -1  
$EndComp
$Comp
L PMOSFET-GSD Q1
U 1 1 536FCBCA
P 7600 1800
F 0 "Q1" V 7900 1600 60  0000 C CNN
F 1 "DMG1013T" V 7400 2200 60  0000 C CNN
F 2 "" H 7600 1800 60  0000 C CNN
F 3 "" H 7600 1800 60  0000 C CNN
	1    7600 1800
	0    1    -1   0   
$EndComp
$Comp
L R R7
U 1 1 536FF281
P 2200 5350
F 0 "R7" H 2330 5400 60  0000 C CNN
F 1 "82k" H 2350 5300 60  0000 C CNN
F 2 "" H 2200 5350 60  0000 C CNN
F 3 "" H 2200 5350 60  0000 C CNN
	1    2200 5350
	1    0    0    -1  
$EndComp
$Comp
L GND #PWR032
U 1 1 536FF2CF
P 1800 5800
F 0 "#PWR032" H 1800 5800 30  0001 C CNN
F 1 "GND" H 1800 5730 30  0001 C CNN
F 2 "" H 1800 5800 60  0000 C CNN
F 3 "" H 1800 5800 60  0000 C CNN
	1    1800 5800
	1    0    0    -1  
$EndComp
$Comp
L GND #PWR033
U 1 1 536FF2D5
P 2200 5800
F 0 "#PWR033" H 2200 5800 30  0001 C CNN
F 1 "GND" H 2200 5730 30  0001 C CNN
F 2 "" H 2200 5800 60  0000 C CNN
F 3 "" H 2200 5800 60  0000 C CNN
	1    2200 5800
	1    0    0    -1  
$EndComp
$Comp
L R R5
U 1 1 536FF3AB
P 1400 5350
F 0 "R5" H 1530 5400 60  0000 C CNN
F 1 "DNP" H 1550 5300 60  0000 C CNN
F 2 "" H 1400 5350 60  0000 C CNN
F 3 "" H 1400 5350 60  0000 C CNN
	1    1400 5350
	1    0    0    -1  
$EndComp
$Comp
L R R4
U 1 1 536FF3B9
P 1000 5350
F 0 "R4" H 1130 5400 60  0000 C CNN
F 1 "DNP" H 1150 5300 60  0000 C CNN
F 2 "" H 1200 5200 60  0000 C CNN
F 3 "" H 1000 5350 60  0000 C CNN
	1    1000 5350
	1    0    0    -1  
$EndComp
$Comp
L R R8
U 1 1 536FF44F
P 2550 5350
F 0 "R8" H 2680 5400 60  0000 C CNN
F 1 "DNP" H 2700 5300 60  0000 C CNN
F 2 "" H 2550 5350 60  0000 C CNN
F 3 "" H 2550 5350 60  0000 C CNN
	1    2550 5350
	1    0    0    -1  
$EndComp
$Comp
L R R9
U 1 1 536FF456
P 2900 5350
F 0 "R9" H 3030 5400 60  0000 C CNN
F 1 "0" H 3050 5300 60  0000 C CNN
F 2 "0603" H 3100 5200 60  0000 C CNN
F 3 "" H 2900 5350 60  0000 C CNN
	1    2900 5350
	1    0    0    -1  
$EndComp
Wire Wire Line
	2700 4150 5300 4150
Wire Wire Line
	2700 4300 5100 4300
Wire Wire Line
	3600 4600 3600 4150
Connection ~ 3600 4150
Wire Wire Line
	3600 5000 3600 5200
Connection ~ 4300 4300
Wire Wire Line
	4300 5000 4300 5200
Wire Wire Line
	2500 3550 2900 3550
Wire Wire Line
	2900 3550 2900 4150
Connection ~ 2900 4150
Wire Wire Line
	1600 4150 1400 4150
Wire Wire Line
	1400 4150 1400 3550
Wire Wire Line
	1400 3550 1800 3550
Wire Wire Line
	700  5250 700  4300
Wire Wire Line
	700  4300 1600 4300
Wire Wire Line
	4800 4900 4800 5300
Wire Wire Line
	4800 5700 4800 5900
Wire Wire Line
	1000 4450 1600 4450
Wire Wire Line
	10700 4500 10900 4500
Wire Wire Line
	10900 4500 10900 5300
Wire Wire Line
	10700 4600 10900 4600
Connection ~ 10900 4600
Wire Wire Line
	10700 4750 10900 4750
Connection ~ 10900 4750
Wire Wire Line
	10700 4850 10900 4850
Connection ~ 10900 4850
Wire Wire Line
	10700 5000 10900 5000
Connection ~ 10900 5000
Wire Wire Line
	10700 5100 10900 5100
Connection ~ 10900 5100
Wire Wire Line
	9350 5300 9350 5100
Wire Wire Line
	9350 5100 9550 5100
Wire Wire Line
	6450 4800 9550 4800
Wire Wire Line
	6450 4500 6900 4500
Wire Wire Line
	7800 4500 7800 5500
Connection ~ 7800 4500
Wire Wire Line
	8200 5500 8200 4650
Connection ~ 8200 4650
Wire Wire Line
	8600 5500 8600 4800
Connection ~ 8600 4800
Wire Wire Line
	9000 5500 9000 4950
Connection ~ 9000 4950
Wire Wire Line
	7800 5800 7800 6000
Wire Wire Line
	8200 5800 8200 6000
Wire Wire Line
	8600 5800 8600 6000
Wire Wire Line
	9000 5800 9000 6000
Wire Wire Line
	6600 4250 6600 4500
Connection ~ 6600 4500
Wire Wire Line
	1600 2200 1600 2400
Wire Wire Line
	8000 1700 8500 1700
Wire Wire Line
	6450 4950 9550 4950
Wire Wire Line
	6450 4650 9550 4650
Wire Wire Line
	8000 3500 8000 3600
Wire Wire Line
	1100 2200 1100 2400
Wire Wire Line
	9500 3200 9500 3400
Wire Wire Line
	9500 2400 9500 2200
Wire Wire Line
	9500 2200 9800 2200
Wire Wire Line
	1800 5600 1800 5800
Wire Wire Line
	2200 5600 2200 5800
Wire Wire Line
	1400 5600 1400 6000
Wire Wire Line
	1400 6000 3300 6000
Wire Wire Line
	2550 6000 2550 5600
Wire Wire Line
	1000 5600 1000 6200
Wire Wire Line
	1000 6200 3700 6200
Wire Wire Line
	2900 6200 2900 5600
Wire Wire Line
	3300 6000 3300 4300
Connection ~ 2550 6000
Connection ~ 3300 4300
Connection ~ 2900 6200
Wire Wire Line
	2900 4450 2900 5100
Wire Wire Line
	2900 4450 2700 4450
Wire Wire Line
	2200 5100 2200 4900
Wire Wire Line
	2200 4900 2900 4900
Connection ~ 2900 4900
Wire Wire Line
	2550 5100 2550 4900
Connection ~ 2550 4900
Wire Wire Line
	1000 4450 1000 5100
Wire Wire Line
	1800 4900 1800 5100
Wire Wire Line
	1000 4900 1800 4900
Connection ~ 1000 4900
Wire Wire Line
	1400 5100 1400 4900
Connection ~ 1400 4900
Text Notes 1150 6800 0    60   ~ 0
U2            R4 R5    R6    R7  R8  R9 C7    C8\n\nAAT1217-3.3  -  -     -    82k  -  0R 4.7uF 4.7uF\nAAT1217-1.2  -  1.02M 604k 82k  -  0R 4.7uF 4.7uF\nTLV61220     0R  -     -   180k 1M -  10uF  10uF\n\n(FB and EN are swapped on TLV61220)
Wire Notes Line
	1800 6700 1800 7200
$Comp
L DIODE D1
U 1 1 537141FF
P 7100 4500
F 0 "D1" H 7100 4600 60  0000 C CNN
F 1 "RR264M-400" H 7100 4400 60  0000 C CNN
F 2 "" H 7100 4500 60  0000 C CNN
F 3 "" H 7100 4500 60  0000 C CNN
F 4 "If>=400mA" H 7100 4700 60  0000 C CNN "Field4"
	1    7100 4500
	-1   0    0    -1  
$EndComp
Wire Notes Line
	3800 6850 1150 6850
Wire Wire Line
	8700 4500 8700 4300
$Comp
L TESTPOINT TP7
U 1 1 524F45A5
P 4000 4050
F 0 "TP7" H 4000 4300 60  0000 C CNN
F 1 "TESTPOINT" H 4000 4000 60  0001 C CNN
F 2 "" H 4000 4050 60  0000 C CNN
F 3 "" H 4000 4050 60  0000 C CNN
	1    4000 4050
	1    0    0    -1  
$EndComp
Connection ~ 8700 4500
Text Label 9100 4500 0    60   ~ 0
VBUS
$Comp
L TESTPOINT TP8
U 1 1 5371B73F
P 8700 4300
F 0 "TP8" H 8700 4550 60  0000 C CNN
F 1 "TESTPOINT" H 8700 4250 60  0001 C CNN
F 2 "" H 8700 4300 60  0000 C CNN
F 3 "" H 8700 4300 60  0000 C CNN
	1    8700 4300
	1    0    0    -1  
$EndComp
Wire Wire Line
	4000 4050 4000 4300
Connection ~ 4000 4300
Text GLabel 6700 1700 0    60   Input ~ 0
BATTERY
Wire Wire Line
	6700 1700 7200 1700
Wire Wire Line
	7000 1500 7000 1700
Connection ~ 7000 1700
Wire Wire Line
	7300 4500 9550 4500
Text Label 1100 4900 0    60   ~ 0
FB
Text Label 2300 4900 0    60   ~ 0
EN
$Comp
L C C18
U 1 1 537F77DF
P 5250 5500
F 0 "C18" H 5300 5600 60  0000 L CNN
F 1 "100uF" H 5300 5400 60  0000 L CNN
F 2 "" H 5250 5500 60  0000 C CNN
F 3 "" H 5250 5500 60  0000 C CNN
	1    5250 5500
	1    0    0    -1  
$EndComp
$Comp
L C C27
U 1 1 537F77E5
P 5700 5500
F 0 "C27" H 5750 5600 60  0000 L CNN
F 1 "NC" H 5750 5400 60  0000 L CNN
F 2 "" H 5700 5500 60  0000 C CNN
F 3 "" H 5700 5500 60  0000 C CNN
	1    5700 5500
	1    0    0    -1  
$EndComp
$Comp
L GND #PWR034
U 1 1 537F77FE
P 5250 5900
F 0 "#PWR034" H 5250 5900 30  0001 C CNN
F 1 "GND" H 5250 5830 30  0001 C CNN
F 2 "" H 5250 5900 60  0000 C CNN
F 3 "" H 5250 5900 60  0000 C CNN
	1    5250 5900
	1    0    0    -1  
$EndComp
$Comp
L GND #PWR035
U 1 1 537F7804
P 5700 5900
F 0 "#PWR035" H 5700 5900 30  0001 C CNN
F 1 "GND" H 5700 5830 30  0001 C CNN
F 2 "" H 5700 5900 60  0000 C CNN
F 3 "" H 5700 5900 60  0000 C CNN
	1    5700 5900
	1    0    0    -1  
$EndComp
Wire Wire Line
	4800 5100 5700 5100
Wire Wire Line
	5700 5100 5700 5300
Connection ~ 4800 5100
Wire Wire Line
	5250 5300 5250 5100
Connection ~ 5250 5100
Wire Wire Line
	5250 5700 5250 5900
Wire Wire Line
	5700 5700 5700 5900
$Comp
L SW-SPDT-S4 SW1
U 1 1 537F800A
P 3950 2250
F 0 "SW1" H 3800 2500 60  0000 C CNN
F 1 "CUS-12B" H 3450 1950 60  0000 C CNN
F 2 "~" H 3950 2250 60  0000 C CNN
F 3 "~" H 3950 2250 60  0000 C CNN
	1    3950 2250
	1    0    0    -1  
$EndComp
Text GLabel 2400 2250 0    60   Output ~ 0
VRF
$Comp
L GND #PWR036
U 1 1 537F802B
P 3800 3150
F 0 "#PWR036" H 3800 3150 30  0001 C CNN
F 1 "GND" H 3800 3080 30  0001 C CNN
F 2 "" H 3800 3150 60  0000 C CNN
F 3 "" H 3800 3150 60  0000 C CNN
	1    3800 3150
	1    0    0    -1  
$EndComp
$Comp
L GND #PWR037
U 1 1 537F8031
P 4700 3150
F 0 "#PWR037" H 4700 3150 30  0001 C CNN
F 1 "GND" H 4700 3080 30  0001 C CNN
F 2 "" H 4700 3150 60  0000 C CNN
F 3 "" H 4700 3150 60  0000 C CNN
	1    4700 3150
	1    0    0    -1  
$EndComp
Wire Wire Line
	3800 2750 3800 3150
Wire Wire Line
	3800 2950 4100 2950
Wire Wire Line
	4100 2950 4100 2750
Connection ~ 3800 2950
Wire Wire Line
	4000 2750 4000 2950
Connection ~ 4000 2950
Wire Wire Line
	3900 2750 3900 2950
Connection ~ 3900 2950
Wire Wire Line
	4500 2150 4700 2150
Wire Wire Line
	4700 2150 4700 3150
Wire Wire Line
	2400 2250 3400 2250
$Comp
L R R16
U 1 1 537F83D4
P 3950 1750
F 0 "R16" V 4050 1850 60  0000 C CNN
F 1 "NC" V 3950 1750 60  0000 C CNN
F 2 "" H 3950 1750 60  0000 C CNN
F 3 "" H 3950 1750 60  0000 C CNN
	1    3950 1750
	0    -1   -1   0   
$EndComp
Wire Wire Line
	4900 2350 4900 1750
Wire Wire Line
	4900 1750 4200 1750
Connection ~ 4900 2350
Wire Wire Line
	3200 2250 3200 1750
Wire Wire Line
	3200 1750 3700 1750
Connection ~ 3200 2250
$Comp
L VARISTOR V7
U 1 1 537FBEE4
P 5200 2800
F 0 "V7" V 5100 2800 60  0000 C CNN
F 1 "EZJP0V080GA" V 5300 2800 60  0000 C CNN
F 2 "" H 5200 2800 60  0000 C CNN
F 3 "" H 5200 2800 60  0000 C CNN
	1    5200 2800
	1    0    0    -1  
$EndComp
$Comp
L VARISTOR V6
U 1 1 537FBF0D
P 2900 2800
F 0 "V6" V 2800 2800 60  0000 C CNN
F 1 "EZJP0V080GA" V 3000 2800 60  0000 C CNN
F 2 "" H 2900 2800 60  0000 C CNN
F 3 "" H 2900 2800 60  0000 C CNN
	1    2900 2800
	1    0    0    -1  
$EndComp
$Comp
L GND #PWR038
U 1 1 537FBF13
P 2900 3150
F 0 "#PWR038" H 2900 3150 30  0001 C CNN
F 1 "GND" H 2900 3080 30  0001 C CNN
F 2 "" H 2900 3150 60  0000 C CNN
F 3 "" H 2900 3150 60  0000 C CNN
	1    2900 3150
	1    0    0    -1  
$EndComp
$Comp
L GND #PWR039
U 1 1 537FBF19
P 5200 3150
F 0 "#PWR039" H 5200 3150 30  0001 C CNN
F 1 "GND" H 5200 3080 30  0001 C CNN
F 2 "" H 5200 3150 60  0000 C CNN
F 3 "" H 5200 3150 60  0000 C CNN
	1    5200 3150
	1    0    0    -1  
$EndComp
Wire Wire Line
	5200 2100 5200 2650
Connection ~ 5200 2350
Wire Wire Line
	5200 2950 5200 3150
Wire Wire Line
	2900 2650 2900 2250
Connection ~ 2900 2250
Wire Wire Line
	2900 2950 2900 3150
$Comp
L POWERED #FLG040
U 1 1 537FC1DF
P 2700 1650
F 0 "#FLG040" H 2900 1550 60  0001 C CNN
F 1 "POWERED" H 2700 1700 60  0000 C CNN
F 2 "" H 2700 1650 60  0000 C CNN
F 3 "" H 2700 1650 60  0000 C CNN
	1    2700 1650
	1    0    0    -1  
$EndComp
Text Notes 3650 1500 0    60   ~ 0
See file OPTIONS
Text Notes 1150 7550 0    60   ~ 0
See file OPTIONS
Wire Notes Line
	900  6400 900  6500
Wire Notes Line
	900  6500 3200 6500
Wire Notes Line
	3200 6500 3200 6400
Wire Notes Line
	4600 6100 4600 6200
Wire Notes Line
	4600 6200 5800 6200
Wire Notes Line
	5800 6200 5800 6100
Text Notes 4800 6350 0    60   ~ 0
See file OPTIONS
Wire Wire Line
	7600 2800 9100 2800
Wire Wire Line
	7600 2100 7600 4500
Connection ~ 7600 4500
Connection ~ 7600 2800
Wire Wire Line
	8000 3000 8000 2800
Connection ~ 8000 2800
Wire Wire Line
	2700 1850 2700 2250
Connection ~ 2700 2250
Text Notes 4800 6500 0    60   ~ 0
Height <= 2.5 mm
Wire Wire Line
	4500 2350 5200 2350
$Comp
L 3V3 #PWR041
U 1 1 54DEC25F
P 5200 2100
F 0 "#PWR041" H 5200 2060 30  0001 C CNN
F 1 "3V3" H 5200 2250 60  0000 C CNN
F 2 "" H 5200 2100 60  0000 C CNN
F 3 "" H 5200 2100 60  0000 C CNN
	1    5200 2100
	1    0    0    -1  
$EndComp
Wire Wire Line
	4800 4300 4800 4400
Wire Wire Line
	4600 3900 4600 4300
Connection ~ 4600 4300
Wire Wire Line
	4300 4300 4300 4600
Text Notes 4800 3550 2    60   ~ 0
To do: move TP5 back to VSYS
Wire Wire Line
	5100 4300 5100 3900
Connection ~ 4800 4300
$EndSCHEMATC
