EESchema Schematic File Version 2
LIBS:pwr
LIBS:r
LIBS:c
LIBS:led
LIBS:powered
LIBS:kl25-48
LIBS:memcard8
LIBS:micro_usb_b
LIBS:varistor
LIBS:pmosfet-gsd
LIBS:antenna
LIBS:er-oled-fpc30
LIBS:cc2543
LIBS:balun-smt6
LIBS:xtal-4
LIBS:testpoint
LIBS:nmosfet-gsd
LIBS:diode
LIBS:gencon
LIBS:aat1217
LIBS:inductor
LIBS:crystal
LIBS:switch
LIBS:anelok-cache
EELAYER 24 0
EELAYER END
$Descr A4 11693 8268
encoding utf-8
Sheet 4 6
Title "Anelok Password Safe"
Date "15 aug 2014"
Rev ""
Comp "Werner Almesberger"
Comment1 ""
Comment2 ""
Comment3 ""
Comment4 ""
$EndDescr
Text Notes 1000 1350 0    200  ~ 40
RF
$Comp
L BALUN-SMT6 B1
U 1 1 536D4043
P 8400 3600
F 0 "B1" H 8500 3950 60  0000 C CNN
F 1 "2450BM15A0002" H 8400 3150 60  0000 C CNN
F 2 "" H 8400 3600 60  0000 C CNN
F 3 "" H 8400 3600 60  0000 C CNN
	1    8400 3600
	-1   0    0    -1  
$EndComp
$Comp
L C C19
U 1 1 536D4049
P 9500 3800
F 0 "C19" H 9550 3900 60  0000 L CNN
F 1 "NC" H 9550 3700 60  0000 L CNN
F 2 "" H 9500 3800 60  0000 C CNN
F 3 "" H 9500 3800 60  0000 C CNN
	1    9500 3800
	1    0    0    -1  
$EndComp
$Comp
L R R17
U 1 1 536D404F
P 9950 3400
F 0 "R17" H 10080 3450 60  0000 C CNN
F 1 "0" H 10100 3350 60  0000 C CNN
F 2 "" H 9950 3400 60  0000 C CNN
F 3 "" H 9950 3400 60  0000 C CNN
	1    9950 3400
	0    -1   -1   0   
$EndComp
$Comp
L XTAL-4 X2
U 1 1 536D4058
P 5750 5400
F 0 "X2" H 5750 5750 60  0000 C CNN
F 1 "32MHz" H 5750 5650 60  0000 C CNN
F 2 "" H 5750 5400 60  0000 C CNN
F 3 "" H 5750 5400 60  0000 C CNN
F 4 "8pF" H 5500 4400 60  0000 L CNN "Field4"
F 5 "40ppm" H 5500 4300 60  0000 L CNN "Field5"
F 6 "ESR<=60R" H 5500 4200 60  0000 L CNN "Field6"
	1    5750 5400
	1    0    0    -1  
$EndComp
$Comp
L C C24
U 1 1 536D405E
P 6400 5800
F 0 "C24" H 6450 5900 60  0000 L CNN
F 1 "12pF" H 6450 5700 60  0000 L CNN
F 2 "" H 6400 5800 60  0000 C CNN
F 3 "" H 6400 5800 60  0000 C CNN
	1    6400 5800
	1    0    0    -1  
$EndComp
$Comp
L C C23
U 1 1 536D4064
P 5100 5800
F 0 "C23" H 5150 5900 60  0000 L CNN
F 1 "12pF" H 5150 5700 60  0000 L CNN
F 2 "" H 5100 5800 60  0000 C CNN
F 3 "" H 5100 5800 60  0000 C CNN
	1    5100 5800
	1    0    0    -1  
$EndComp
$Comp
L R R15
U 1 1 536D4084
P 4650 1550
F 0 "R15" H 4780 1600 60  0000 C CNN
F 1 "56k/1%" H 4750 1500 60  0000 L CNN
F 2 "" H 4650 1550 60  0000 C CNN
F 3 "" H 4650 1550 60  0000 C CNN
	1    4650 1550
	1    0    0    -1  
$EndComp
NoConn ~ 2800 3550
$Comp
L GND #PWR048
U 1 1 536D40A6
P 4850 5100
F 0 "#PWR048" H 4850 5100 30  0001 C CNN
F 1 "GND" H 4850 5030 30  0001 C CNN
F 2 "" H 4850 5100 60  0000 C CNN
F 3 "" H 4850 5100 60  0000 C CNN
	1    4850 5100
	1    0    0    -1  
$EndComp
$Comp
L GND #PWR049
U 1 1 536D40AC
P 5600 4300
F 0 "#PWR049" H 5600 4300 30  0001 C CNN
F 1 "GND" H 5600 4230 30  0001 C CNN
F 2 "" H 5600 4300 60  0000 C CNN
F 3 "" H 5600 4300 60  0000 C CNN
	1    5600 4300
	1    0    0    -1  
$EndComp
$Comp
L GND #PWR050
U 1 1 536D40B7
P 5100 6200
F 0 "#PWR050" H 5100 6200 30  0001 C CNN
F 1 "GND" H 5100 6130 30  0001 C CNN
F 2 "" H 5100 6200 60  0000 C CNN
F 3 "" H 5100 6200 60  0000 C CNN
	1    5100 6200
	1    0    0    -1  
$EndComp
$Comp
L GND #PWR051
U 1 1 536D40BD
P 6400 6200
F 0 "#PWR051" H 6400 6200 30  0001 C CNN
F 1 "GND" H 6400 6130 30  0001 C CNN
F 2 "" H 6400 6200 60  0000 C CNN
F 3 "" H 6400 6200 60  0000 C CNN
	1    6400 6200
	1    0    0    -1  
$EndComp
$Comp
L GND #PWR052
U 1 1 536D40CD
P 3750 1700
F 0 "#PWR052" H 3750 1700 30  0001 C CNN
F 1 "GND" H 3750 1630 30  0001 C CNN
F 2 "" H 3750 1700 60  0000 C CNN
F 3 "" H 3750 1700 60  0000 C CNN
	1    3750 1700
	-1   0    0    1   
$EndComp
$Comp
L C C26
U 1 1 536D40D4
P 4700 6500
F 0 "C26" H 4750 6600 60  0000 L CNN
F 1 "100nF" H 4750 6400 60  0000 L CNN
F 2 "" H 4700 6500 60  0000 C CNN
F 3 "" H 4700 6500 60  0000 C CNN
	1    4700 6500
	1    0    0    -1  
$EndComp
$Comp
L C C25
U 1 1 536D40DA
P 3850 6500
F 0 "C25" H 3900 6600 60  0000 L CNN
F 1 "100nF" H 3900 6400 60  0000 L CNN
F 2 "" H 3850 6500 60  0000 C CNN
F 3 "" H 3850 6500 60  0000 C CNN
	1    3850 6500
	1    0    0    -1  
$EndComp
$Comp
L GND #PWR053
U 1 1 536D40E0
P 7800 4200
F 0 "#PWR053" H 7800 4200 30  0001 C CNN
F 1 "GND" H 7800 4130 30  0001 C CNN
F 2 "" H 7800 4200 60  0000 C CNN
F 3 "" H 7800 4200 60  0000 C CNN
	1    7800 4200
	1    0    0    -1  
$EndComp
$Comp
L GND #PWR054
U 1 1 536D40E6
P 9500 4200
F 0 "#PWR054" H 9500 4200 30  0001 C CNN
F 1 "GND" H 9500 4130 30  0001 C CNN
F 2 "" H 9500 4200 60  0000 C CNN
F 3 "" H 9500 4200 60  0000 C CNN
	1    9500 4200
	1    0    0    -1  
$EndComp
$Comp
L GND #PWR055
U 1 1 536D40EC
P 9000 4200
F 0 "#PWR055" H 9000 4200 30  0001 C CNN
F 1 "GND" H 9000 4130 30  0001 C CNN
F 2 "" H 9000 4200 60  0000 C CNN
F 3 "" H 9000 4200 60  0000 C CNN
	1    9000 4200
	1    0    0    -1  
$EndComp
$Comp
L GND #PWR056
U 1 1 536D40F9
P 3850 6900
F 0 "#PWR056" H 3850 6900 30  0001 C CNN
F 1 "GND" H 3850 6830 30  0001 C CNN
F 2 "" H 3850 6900 60  0000 C CNN
F 3 "" H 3850 6900 60  0000 C CNN
	1    3850 6900
	1    0    0    -1  
$EndComp
$Comp
L GND #PWR057
U 1 1 536D40FF
P 4700 6900
F 0 "#PWR057" H 4700 6900 30  0001 C CNN
F 1 "GND" H 4700 6830 30  0001 C CNN
F 2 "" H 4700 6900 60  0000 C CNN
F 3 "" H 4700 6900 60  0000 C CNN
	1    4700 6900
	1    0    0    -1  
$EndComp
$Comp
L GND #PWR058
U 1 1 536D4107
P 5600 6200
F 0 "#PWR058" H 5600 6200 30  0001 C CNN
F 1 "GND" H 5600 6130 30  0001 C CNN
F 2 "" H 5600 6200 60  0000 C CNN
F 3 "" H 5600 6200 60  0000 C CNN
	1    5600 6200
	1    0    0    -1  
$EndComp
$Comp
L GND #PWR059
U 1 1 536D410D
P 5900 6200
F 0 "#PWR059" H 5900 6200 30  0001 C CNN
F 1 "GND" H 5900 6130 30  0001 C CNN
F 2 "" H 5900 6200 60  0000 C CNN
F 3 "" H 5900 6200 60  0000 C CNN
	1    5900 6200
	1    0    0    -1  
$EndComp
$Comp
L C C20
U 1 1 536D4115
P 6700 4500
F 0 "C20" H 6750 4600 60  0000 L CNN
F 1 "100nF" H 6750 4400 60  0000 L CNN
F 2 "" H 6700 4500 60  0000 C CNN
F 3 "" H 6700 4500 60  0000 C CNN
	1    6700 4500
	1    0    0    -1  
$EndComp
$Comp
L C C21
U 1 1 536D411B
P 7100 4500
F 0 "C21" H 7150 4600 60  0000 L CNN
F 1 "220pF" H 7150 4400 60  0000 L CNN
F 2 "" H 7100 4500 60  0000 C CNN
F 3 "" H 7100 4500 60  0000 C CNN
	1    7100 4500
	1    0    0    -1  
$EndComp
$Comp
L C C22
U 1 1 536D412E
P 7450 4500
F 0 "C22" H 7500 4600 60  0000 L CNN
F 1 "100nF" H 7500 4400 60  0000 L CNN
F 2 "" H 7450 4500 60  0000 C CNN
F 3 "" H 7450 4500 60  0000 C CNN
	1    7450 4500
	1    0    0    -1  
$EndComp
$Comp
L GND #PWR060
U 1 1 536D4137
P 6700 4900
F 0 "#PWR060" H 6700 4900 30  0001 C CNN
F 1 "GND" H 6700 4830 30  0001 C CNN
F 2 "" H 6700 4900 60  0000 C CNN
F 3 "" H 6700 4900 60  0000 C CNN
	1    6700 4900
	1    0    0    -1  
$EndComp
$Comp
L GND #PWR061
U 1 1 536D413D
P 7100 4900
F 0 "#PWR061" H 7100 4900 30  0001 C CNN
F 1 "GND" H 7100 4830 30  0001 C CNN
F 2 "" H 7100 4900 60  0000 C CNN
F 3 "" H 7100 4900 60  0000 C CNN
	1    7100 4900
	1    0    0    -1  
$EndComp
$Comp
L GND #PWR062
U 1 1 536D4143
P 7450 4900
F 0 "#PWR062" H 7450 4900 30  0001 C CNN
F 1 "GND" H 7450 4830 30  0001 C CNN
F 2 "" H 7450 4900 60  0000 C CNN
F 3 "" H 7450 4900 60  0000 C CNN
	1    7450 4900
	1    0    0    -1  
$EndComp
$Comp
L C C17
U 1 1 536D414C
P 3100 1400
F 0 "C17" H 3150 1500 60  0000 L CNN
F 1 "1uF" H 3150 1300 60  0000 L CNN
F 2 "" H 3100 1400 60  0000 C CNN
F 3 "" H 3100 1400 60  0000 C CNN
	1    3100 1400
	1    0    0    -1  
$EndComp
$Comp
L C C16
U 1 1 536D4152
P 2600 1400
F 0 "C16" H 2650 1500 60  0000 L CNN
F 1 "100nF" H 2650 1300 60  0000 L CNN
F 2 "" H 2600 1400 60  0000 C CNN
F 3 "" H 2600 1400 60  0000 C CNN
	1    2600 1400
	1    0    0    -1  
$EndComp
$Comp
L GND #PWR063
U 1 1 536D4158
P 2600 1800
F 0 "#PWR063" H 2600 1800 30  0001 C CNN
F 1 "GND" H 2600 1730 30  0001 C CNN
F 2 "" H 2600 1800 60  0000 C CNN
F 3 "" H 2600 1800 60  0000 C CNN
	1    2600 1800
	1    0    0    -1  
$EndComp
$Comp
L GND #PWR064
U 1 1 536D415E
P 3100 1800
F 0 "#PWR064" H 3100 1800 30  0001 C CNN
F 1 "GND" H 3100 1730 30  0001 C CNN
F 2 "" H 3100 1800 60  0000 C CNN
F 3 "" H 3100 1800 60  0000 C CNN
	1    3100 1800
	1    0    0    -1  
$EndComp
$Comp
L GND #PWR065
U 1 1 536D4172
P 4650 1100
F 0 "#PWR065" H 4650 1100 30  0001 C CNN
F 1 "GND" H 4650 1030 30  0001 C CNN
F 2 "" H 4650 1100 60  0000 C CNN
F 3 "" H 4650 1100 60  0000 C CNN
	1    4650 1100
	-1   0    0    1   
$EndComp
$Comp
L ANTENNA ANT1
U 1 1 536D4179
P 10800 3450
F 0 "ANT1" H 10800 3700 60  0000 C CNN
F 1 "ANTENNA" H 10800 3200 60  0000 C CNN
F 2 "" H 10800 3450 60  0000 C CNN
F 3 "" H 10800 3450 60  0000 C CNN
	1    10800 3450
	-1   0    0    -1  
$EndComp
$Comp
L GND #PWR066
U 1 1 536D417F
P 10300 3700
F 0 "#PWR066" H 10300 3700 30  0001 C CNN
F 1 "GND" H 10300 3630 30  0001 C CNN
F 2 "" H 10300 3700 60  0000 C CNN
F 3 "" H 10300 3700 60  0000 C CNN
	1    10300 3700
	1    0    0    -1  
$EndComp
Text Label 5800 3550 0    60   ~ 0
RF_N
Text Label 5800 3700 0    60   ~ 0
RF_P
Text Label 9000 3400 0    60   ~ 0
ANT
Text Label 3900 1700 1    60   ~ 0
DCPL1
Text Label 4650 5100 3    60   ~ 0
X1
Text Label 5800 4150 0    60   ~ 0
X2
Text Label 4650 2150 1    60   ~ 0
RBIAS
NoConn ~ 4350 2300
NoConn ~ 4500 2300
Text Notes 5500 6800 0    60   ~ 0
NX3225SA
Text Notes 5500 6900 0    60   ~ 0
Note: Cload should be 10-16 pF (range permitted by CC2543)
NoConn ~ 2800 3700
NoConn ~ 4200 2300
NoConn ~ 3750 4900
NoConn ~ 3900 4900
Text GLabel 2400 800  0    60   Input ~ 0
VRF
Text GLabel 6700 3100 1    60   Input ~ 0
VRF
Text GLabel 7100 3100 1    60   Input ~ 0
VRF
Text GLabel 3850 5900 1    60   Input ~ 0
VRF
Text GLabel 4700 5900 1    60   Input ~ 0
VRF
Text GLabel 2600 4150 0    60   Input ~ 0
RF_SCLK
Text GLabel 2600 3400 0    60   Input ~ 0
RF_nSEL
Text GLabel 2600 2100 0    60   Input ~ 0
RF_MOSI
Text GLabel 2600 3100 0    60   Output ~ 0
RF_MISO
Text GLabel 4200 7000 3    60   Input ~ 0
RF_nRESET
Text GLabel 2600 3250 0    60   3State ~ 0
RF_DD
Text GLabel 4350 7000 3    60   Input ~ 0
RF_DC
Wire Wire Line
	4650 1800 4650 2300
Wire Wire Line
	2600 3250 2800 3250
Wire Wire Line
	5400 3550 7600 3550
Wire Wire Line
	7600 3550 7600 3400
Wire Wire Line
	7600 3400 8000 3400
Wire Wire Line
	5400 3700 7600 3700
Wire Wire Line
	7600 3700 7600 3800
Wire Wire Line
	7600 3800 8000 3800
Wire Wire Line
	8800 3400 9700 3400
Wire Wire Line
	9500 3600 9500 3400
Connection ~ 9500 3400
Wire Wire Line
	5600 3400 5600 4300
Wire Wire Line
	5600 3400 5400 3400
Wire Wire Line
	5400 3850 5600 3850
Connection ~ 5600 3850
Wire Wire Line
	4850 4900 4850 5100
Wire Wire Line
	4650 4900 4650 5400
Wire Wire Line
	4650 5400 5300 5400
Wire Wire Line
	5400 4150 6400 4150
Wire Wire Line
	6400 4150 6400 5600
Wire Wire Line
	6200 5400 6400 5400
Connection ~ 6400 5400
Wire Wire Line
	5100 5600 5100 5400
Connection ~ 5100 5400
Wire Wire Line
	5100 6000 5100 6200
Wire Wire Line
	6400 6000 6400 6200
Wire Wire Line
	3750 1700 3750 2300
Wire Wire Line
	7800 4200 7800 3600
Wire Wire Line
	7800 3600 8000 3600
Wire Wire Line
	8800 3800 9000 3800
Wire Wire Line
	9000 3800 9000 4200
Wire Wire Line
	8800 3900 9000 3900
Connection ~ 9000 3900
Wire Wire Line
	9500 4000 9500 4200
Wire Wire Line
	3850 6700 3850 6900
Wire Wire Line
	5900 5800 5900 6200
Wire Wire Line
	5600 5800 5600 6200
Wire Wire Line
	4500 6100 4700 6100
Wire Wire Line
	4700 5900 4700 6300
Wire Wire Line
	4050 6100 3850 6100
Wire Wire Line
	3850 5900 3850 6300
Wire Wire Line
	5400 4000 6700 4000
Wire Wire Line
	6700 3100 6700 4300
Wire Wire Line
	5400 3250 7100 3250
Wire Wire Line
	7100 3100 7100 4300
Wire Wire Line
	5400 3100 5600 3100
Wire Wire Line
	5600 3100 5600 3250
Connection ~ 5600 3250
Wire Wire Line
	7100 4100 7450 4100
Wire Wire Line
	7450 4100 7450 4300
Connection ~ 7100 4100
Wire Wire Line
	6700 4700 6700 4900
Wire Wire Line
	7100 4700 7100 4900
Wire Wire Line
	7450 4700 7450 4900
Wire Wire Line
	3900 2300 3900 1000
Wire Wire Line
	3900 1000 3100 1000
Wire Wire Line
	3100 1000 3100 1200
Wire Wire Line
	4050 800  4050 2300
Wire Wire Line
	2400 800  4050 800 
Wire Wire Line
	2600 800  2600 1200
Connection ~ 4700 6100
Connection ~ 3850 6100
Connection ~ 6700 4000
Connection ~ 7100 3250
Wire Wire Line
	2600 1600 2600 1800
Wire Wire Line
	3100 1600 3100 1800
Connection ~ 2600 800 
Wire Wire Line
	4650 1100 4650 1300
Wire Wire Line
	10200 3400 10500 3400
Wire Wire Line
	10300 3700 10300 3500
Wire Wire Line
	10300 3500 10500 3500
Wire Wire Line
	4200 7000 4200 4900
Wire Wire Line
	4350 7000 4350 4900
Wire Wire Line
	4050 6100 4050 4900
Wire Wire Line
	4500 6100 4500 4900
Wire Wire Line
	4700 6700 4700 6900
$Comp
L CC2543 U3
U 1 1 536D4036
P 4100 3600
F 0 "U3" H 3150 4650 60  0000 C CNN
F 1 "CC2543" H 4100 3600 60  0000 C CNN
F 2 "~" H 4100 3600 60  0000 C CNN
F 3 "~" H 4100 3600 60  0000 C CNN
	1    4100 3600
	1    0    0    -1  
$EndComp
Wire Wire Line
	2800 4150 2600 4150
Wire Wire Line
	2800 3100 2600 3100
Wire Wire Line
	3600 2300 3600 2100
Wire Wire Line
	3600 2100 2600 2100
NoConn ~ 2800 4000
NoConn ~ 2800 3850
Wire Wire Line
	2800 3400 2600 3400
NoConn ~ 3600 4900
Wire Notes Line
	9300 4400 9300 4500
Wire Notes Line
	9300 4500 10200 4500
Wire Notes Line
	10200 4500 10200 4400
Text Notes 9350 4650 0    60   ~ 0
See file OPTIONS
Text Notes 5500 7000 0    60   ~ 0
With NX3225SA, use 12 pF or 15 pF.
$EndSCHEMATC
