EESchema Schematic File Version 2
LIBS:pwr
LIBS:r
LIBS:c
LIBS:led
LIBS:powered
LIBS:kl25-48
LIBS:memcard8
LIBS:micro_usb_b
LIBS:varistor
LIBS:pmosfet-gsd
LIBS:antenna
LIBS:er-oled-fpc30
LIBS:cc2543
LIBS:balun-smt6
LIBS:xtal-4
LIBS:testpoint
LIBS:nmosfet-gsd
LIBS:diode
LIBS:gencon
LIBS:aat1217
LIBS:inductor
LIBS:crystal
LIBS:switch
LIBS:anelok-cache
EELAYER 24 0
EELAYER END
$Descr A4 11693 8268
encoding utf-8
Sheet 6 6
Title ""
Date "5 jan 2015"
Rev ""
Comp ""
Comment1 ""
Comment2 ""
Comment3 ""
Comment4 ""
$EndDescr
$Comp
L CONN_2 CON4
U 1 1 5371C032
P 1950 4050
F 0 "CON4" H 1950 3900 60  0000 C CNN
F 1 "1059/1060" H 1950 4200 60  0000 C CNN
F 2 "" H 1950 4050 60  0000 C CNN
F 3 "" H 1950 4050 60  0000 C CNN
	1    1950 4050
	-1   0    0    1   
$EndComp
Text Label 3950 4000 2    60   ~ 0
SUB_BATTERY
$Comp
L VARISTOR V5
U 1 1 5371C03F
P 7350 5150
F 0 "V5" V 7250 5150 60  0000 C CNN
F 1 "EZJP0V080GA" V 7450 5150 60  0000 C CNN
F 2 "" H 7350 5150 60  0000 C CNN
F 3 "" H 7350 5150 60  0000 C CNN
	1    7350 5150
	1    0    0    -1  
$EndComp
Wire Wire Line
	2350 4000 4150 4000
Wire Wire Line
	2350 4100 2550 4100
Wire Wire Line
	2550 4100 2550 4700
Text GLabel 9200 4700 2    60   UnSpc ~ 0
CAP_A
Text GLabel 9200 5000 2    60   UnSpc ~ 0
CAP_B
Wire Notes Line
	5850 3050 5850 2850
Wire Notes Line
	5850 2850 6850 3050
Wire Notes Line
	6850 3050 5850 3050
Wire Notes Line
	5850 2800 6850 2800
Wire Notes Line
	6850 2800 6850 3000
Wire Notes Line
	6850 3000 5850 2800
$Comp
L R R20
U 1 1 5371C076
P 8750 4700
F 0 "R20" V 8850 4800 60  0000 C CNN
F 1 "0" V 8750 4700 60  0000 C CNN
F 2 "" H 8750 4700 60  0000 C CNN
F 3 "" H 8750 4700 60  0000 C CNN
	1    8750 4700
	0    -1   -1   0   
$EndComp
$Comp
L R R21
U 1 1 5371C07C
P 8750 5000
F 0 "R21" V 8850 5100 60  0000 C CNN
F 1 "0" V 8750 5000 60  0000 C CNN
F 2 "" H 8750 5000 60  0000 C CNN
F 3 "" H 8750 5000 60  0000 C CNN
	1    8750 5000
	0    -1   -1   0   
$EndComp
Wire Wire Line
	4900 2800 5850 2800
Wire Wire Line
	4900 3000 5850 3000
Text Notes 8200 5250 0    60   ~ 0
0R resistors are placeholders for beads
$Comp
L CONN_4 CON5
U 1 1 5371C154
P 5250 4550
F 0 "CON5" H 5250 4800 60  0000 C CNN
F 1 "CONN_4" H 5250 4300 60  0000 C CNN
F 2 "" H 5250 4550 60  0000 C CNN
F 3 "" H 5250 4550 60  0000 C CNN
	1    5250 4550
	1    0    0    -1  
$EndComp
$Comp
L CONN_4 CON6
U 1 1 5371C161
P 6050 4550
F 0 "CON6" H 6050 4800 60  0000 C CNN
F 1 "CONN_4" H 6050 4300 60  0000 C CNN
F 2 "" H 6050 4550 60  0000 C CNN
F 3 "" H 6050 4550 60  0000 C CNN
	1    6050 4550
	-1   0    0    -1  
$EndComp
$Comp
L GND #PWR071
U 1 1 5371C167
P 6950 5700
F 0 "#PWR071" H 6950 5700 30  0001 C CNN
F 1 "GND" H 6950 5630 30  0001 C CNN
F 2 "" H 6950 5700 60  0000 C CNN
F 3 "" H 6950 5700 60  0000 C CNN
	1    6950 5700
	1    0    0    -1  
$EndComp
Wire Wire Line
	6450 4700 6950 4700
Wire Wire Line
	6950 4100 6950 5700
Wire Wire Line
	2550 4700 4850 4700
Text Label 4150 4700 2    60   ~ 0
SUB_GND
Wire Wire Line
	4150 4000 4150 4400
Wire Wire Line
	4150 4400 4850 4400
Text Label 5100 2800 0    60   ~ 0
SUB_CAP_A
Text Label 5100 3000 0    60   ~ 0
SUB_CAP_B
Wire Wire Line
	3450 4600 4850 4600
Text Label 4150 4600 2    60   ~ 0
SUB_CAP_B
Wire Wire Line
	3450 4500 4850 4500
Text Label 4150 4500 2    60   ~ 0
SUB_CAP_A
Text GLabel 9200 4400 2    60   Output ~ 0
BATTERY
Wire Wire Line
	6450 4600 8000 4600
Wire Wire Line
	8000 4600 8000 5000
Wire Wire Line
	8000 5000 8500 5000
Wire Wire Line
	6450 4500 8200 4500
Wire Wire Line
	8200 4500 8200 4700
Wire Wire Line
	8200 4700 8500 4700
Wire Wire Line
	6450 4400 9200 4400
Wire Wire Line
	9000 4700 9200 4700
Wire Wire Line
	9000 5000 9200 5000
Text Notes 1250 1450 0    200  ~ 40
Sub-board
Wire Wire Line
	4350 4400 4350 3800
Wire Wire Line
	4350 3800 6650 3800
Wire Wire Line
	6650 3800 6650 4400
Connection ~ 6650 4400
Connection ~ 4350 4400
Wire Wire Line
	4450 4500 4450 3900
Wire Wire Line
	4450 3900 6750 3900
Wire Wire Line
	6750 3900 6750 4500
Connection ~ 6750 4500
Connection ~ 4450 4500
Wire Wire Line
	4550 4600 4550 4000
Wire Wire Line
	4550 4000 6850 4000
Wire Wire Line
	6850 4000 6850 4600
Connection ~ 6850 4600
Connection ~ 4550 4600
Wire Wire Line
	4650 4700 4650 4100
Wire Wire Line
	4650 4100 6950 4100
Connection ~ 6950 4700
Connection ~ 4650 4700
$Comp
L GND #PWR072
U 1 1 54AAF65C
P 7350 5700
F 0 "#PWR072" H 7350 5700 30  0001 C CNN
F 1 "GND" H 7350 5630 30  0001 C CNN
F 2 "" H 7350 5700 60  0000 C CNN
F 3 "" H 7350 5700 60  0000 C CNN
	1    7350 5700
	1    0    0    -1  
$EndComp
Wire Wire Line
	7350 5000 7350 4400
Connection ~ 7350 4400
Wire Wire Line
	7350 5300 7350 5700
$EndSCHEMATC
