#FIG 3.2  Produced by xfig version 3.2.5c
Landscape
Center
Metric
A4      
100.00
Single
-2
1200 2
2 2 0 2 0 7 50 -1 -1 0.000 0 0 -1 0 0 5
	 4500 6750 5850 6750 5850 7065 4500 7065 4500 6750
2 1 0 2 0 7 50 -1 -1 0.000 0 0 -1 1 0 2
	1 1 2.00 60.00 60.00
	 4950 6750 4950 6345
2 1 0 2 0 7 50 -1 -1 0.000 0 0 -1 1 0 2
	1 1 2.00 60.00 60.00
	 5400 6345 5400 6750
2 2 0 2 0 7 50 -1 -1 0.000 0 0 -1 0 0 5
	 4500 6030 5850 6030 5850 6345 4500 6345 4500 6030
2 1 0 2 0 7 50 -1 -1 0.000 0 0 -1 1 0 2
	1 1 2.00 60.00 60.00
	 4950 6030 4950 5625
2 1 0 2 0 7 50 -1 -1 0.000 0 0 -1 1 0 2
	1 1 2.00 60.00 60.00
	 5400 5625 5400 6030
2 2 0 2 0 7 50 -1 -1 0.000 0 0 -1 0 0 5
	 4500 5310 5850 5310 5850 5625 4500 5625 4500 5310
2 1 0 2 0 7 50 -1 -1 0.000 0 0 -1 1 0 2
	1 1 2.00 60.00 60.00
	 4950 5310 4950 4905
2 1 0 2 0 7 50 -1 -1 0.000 0 0 -1 1 0 2
	1 1 2.00 60.00 60.00
	 5400 4905 5400 5310
2 1 0 2 0 7 50 -1 -1 0.000 0 0 -1 1 0 2
	1 1 2.00 60.00 60.00
	 4950 4590 4950 4185
2 1 0 2 0 7 50 -1 -1 0.000 0 0 -1 1 0 2
	1 1 2.00 60.00 60.00
	 5400 4185 5400 4590
2 2 0 2 0 7 50 -1 -1 0.000 0 0 -1 0 0 5
	 4500 3870 5850 3870 5850 4185 4500 4185 4500 3870
2 2 0 2 0 7 50 -1 -1 0.000 0 0 -1 0 0 5
	 4500 4590 5850 4590 5850 4905 4500 4905 4500 4590
2 1 0 3 20 7 60 -1 -1 0.000 0 0 -1 0 0 2
	 3600 5670 8325 5670
4 1 0 50 -1 22 12 0.0000 4 180 660 5175 6975 Standby\001
4 0 0 50 -1 22 12 0.0000 4 135 90 5490 6615 0\001
4 2 0 50 -1 22 12 0.0000 4 180 435 4860 6615 Delay\001
4 1 0 50 -1 22 12 0.0000 4 180 495 5175 6255 Ready\001
4 2 0 50 -1 22 12 0.0000 4 135 180 4860 5895 20\001
4 0 0 50 -1 22 12 0.0000 4 135 90 5490 5895 1\001
4 2 0 50 -1 22 12 0.0000 4 135 270 4860 5175 141\001
4 0 0 50 -1 22 12 0.0000 4 135 270 5490 5175 100\001
4 1 0 50 -1 22 12 0.0000 4 135 450 5175 4815 Dark1\001
4 2 0 50 -1 22 12 0.0000 4 135 330 4860 4455 10 ?\001
4 1 0 50 -1 22 12 0.0000 4 135 495 5175 4095 Active\001
4 1 0 50 -1 22 12 0.0000 4 135 450 5175 5535 Dark2\001
4 0 0 50 -1 22 12 0.0000 4 135 90 5490 4455 1\001
4 2 0 50 -1 22 12 0.0000 4 135 585 4365 4095 ~15 mA\001
4 2 0 50 -1 22 12 0.0000 4 135 540 4365 4815 3.1 mA\001
4 2 0 50 -1 22 12 0.0000 4 135 630 4365 6255 ~0.3 mA\001
4 0 0 50 -1 22 12 0.0000 4 135 1770 6075 4455 Fill / clear frame buffer\001
4 0 0 50 -1 22 12 0.0000 4 180 1785 6075 5175 Power up / down panel\001
4 0 0 50 -1 22 12 0.0000 4 180 2175 6075 5895 Start / stop boost converter\001
4 0 0 50 -1 22 12 0.0000 4 180 2610 6075 6615 Raise / lower sampling frequency\001
4 0 0 50 -1 22 12 0.0000 4 135 450 5940 4095 5/30 s\001
4 0 0 50 -1 22 12 0.0000 4 135 105 5940 5535 ?\001
4 0 0 50 -1 22 12 0.0000 4 135 105 5940 6255 ?\001
4 0 0 50 -1 22 12 0.0000 4 135 315 5940 4815 10 s\001
4 2 0 50 -1 22 12 0.0000 4 135 540 4365 5535 0.7 mA\001
4 0 0 50 -1 22 12 0.0000 4 135 2970 3825 7650 Current measurements from board #2\001
4 0 0 50 -1 22 12 0.0000 4 180 3585 3825 7875 Estimated state change times in milliseconds\001
4 2 0 50 -1 22 12 0.0000 4 135 630 4365 6975 <0.1 mA\001
4 0 20 40 -1 22 12 0.0000 4 180 1635 6525 5580 Implemented this far\001
