#FIG 3.2  Produced by xfig version 3.2.5c
Landscape
Center
Metric
A4      
100.00
Single
-2
1200 2
0 32 #c0c0c0
6 4095 7155 5220 8370
2 2 0 2 0 7 50 -1 -1 0.000 0 0 -1 0 0 5
	 4725 7200 5175 7200 5175 8325 4725 8325 4725 7200
2 3 0 2 0 7 50 -1 -1 0.000 0 0 -1 0 0 4
	 4815 8100 4815 7290 5040 7290 4815 8100
2 3 0 2 0 7 50 -1 -1 0.000 0 0 -1 0 0 4
	 5085 8235 4860 8235 5085 7425 5085 8235
4 1 0 50 -1 18 12 0.0000 4 150 555 4410 7695 Slider\001
-6
2 2 0 2 0 7 50 -1 -1 0.000 0 0 -1 0 0 5
	 3825 4950 2925 4950 2925 5850 3825 5850 3825 4950
2 1 0 2 0 7 50 -1 -1 0.000 0 0 -1 0 0 3
	 2925 5400 2250 5400 2250 4050
2 2 0 6 27 7 60 -1 -1 0.000 0 0 -1 0 0 5
	 4275 4725 5625 4725 5625 6075 4275 6075 4275 4725
2 1 0 2 0 7 50 -1 -1 0.000 0 0 -1 0 0 3
	 5625 5175 6525 5175 6525 4275
2 1 0 2 0 7 50 -1 -1 0.000 0 0 -1 0 0 3
	 5625 5850 6750 5850 6750 6075
2 2 0 2 0 7 50 -1 -1 0.000 0 0 -1 0 0 5
	 4275 4275 5625 4275 5625 3600 4275 3600 4275 4275
2 1 0 2 0 7 50 -1 -1 0.000 0 0 -1 0 0 2
	 4950 4275 4950 4725
2 1 0 2 0 7 50 -1 -1 0.000 0 0 -1 0 0 2
	 4950 6075 4950 7200
2 2 0 2 0 7 50 -1 -1 0.000 0 0 -1 0 0 5
	 6075 2025 7425 2025 7425 2925 6075 2925 6075 2025
2 1 0 2 0 7 50 -1 -1 0.000 0 0 -1 0 0 2
	 3825 5400 4275 5400
2 2 0 6 32 7 60 -1 -1 0.000 0 0 -1 0 0 5
	 2700 4500 5850 4500 5850 6300 2700 6300 2700 4500
2 1 0 6 14 7 55 -1 -1 0.000 0 0 -1 0 0 3
	 4275 5400 2250 5400 2250 2700
2 1 0 6 14 7 55 -1 -1 0.000 0 0 -1 0 0 3
	 5625 5175 6525 5175 6525 2700
2 1 0 2 0 7 50 -1 -1 0.000 0 0 -1 0 0 3
	 5625 5400 6975 5400 6975 4275
2 1 0 2 0 7 50 -1 -1 0.000 0 0 -1 0 0 3
	 5625 5625 8325 5625 8325 4275
2 2 0 2 0 7 50 -1 -1 0.000 0 0 -1 0 0 5
	 7875 2925 9225 2925 9225 2475 7875 2475 7875 2925
2 1 0 2 0 7 50 -1 -1 0.000 0 0 -1 0 0 2
	 8325 2925 8325 3600
2 1 0 2 0 7 50 -1 -1 0.000 0 0 -1 0 0 2
	 6975 3600 6975 2700
2 2 0 2 0 7 50 -1 -1 0.000 0 0 -1 0 0 5
	 9900 2250 10350 2250 10350 2700 9900 2700 9900 2250
2 2 0 6 31 7 60 -1 -1 0.000 0 0 -1 0 0 5
	 9900 2925 10350 2925 10350 3375 9900 3375 9900 2925
2 2 0 6 32 7 60 -1 -1 0.000 0 0 -1 0 0 5
	 9900 3600 10350 3600 10350 4050 9900 4050 9900 3600
2 2 0 6 11 7 60 -1 -1 0.000 0 0 -1 0 0 5
	 9900 4950 10350 4950 10350 5400 9900 5400 9900 4950
2 2 0 6 14 7 60 -1 -1 0.000 0 0 -1 0 0 5
	 9900 4275 10350 4275 10350 4725 9900 4725 9900 4275
2 2 0 6 27 7 60 -1 -1 0.000 0 0 -1 0 0 5
	 9900 5625 10350 5625 10350 6075 9900 6075 9900 5625
2 1 0 2 0 7 50 -1 -1 0.000 0 0 -1 0 0 2
	 9900 6525 10350 6525
2 1 0 2 0 7 50 -1 -1 0.000 0 0 -1 0 0 2
	 9900 6975 10350 6975
2 1 0 6 14 7 60 -1 -1 0.000 0 0 -1 0 0 2
	 9900 6975 10350 6975
2 1 0 2 0 7 50 -1 -1 0.000 0 0 -1 0 0 2
	 6525 3600 6525 2700
2 2 0 2 0 7 50 -1 -1 0.000 0 0 -1 0 0 5
	 4275 4725 5625 4725 5625 6075 4275 6075 4275 4725
2 2 0 2 0 7 50 -1 -1 0.000 0 0 -1 0 0 5
	 6075 3600 7425 3600 7425 4275 6075 4275 6075 3600
2 2 0 2 0 7 50 -1 -1 0.000 0 0 -1 0 0 5
	 7650 3600 9000 3600 9000 4275 7650 4275 7650 3600
2 2 0 2 0 7 50 -1 -1 0.000 0 0 -1 0 0 5
	 6075 6075 7425 6075 7425 8100 6075 8100 6075 6075
2 1 0 2 0 7 50 -1 -1 0.000 0 0 -1 0 0 3
	 2070 4050 2250 4275 2430 4050
2 2 0 2 0 7 50 -1 -1 0.000 0 0 -1 0 0 5
	 1800 3600 9225 3600 9225 8325 1800 8325 1800 3600
2 2 0 6 31 7 60 -1 -1 0.000 0 0 -1 0 0 5
	 1800 3600 9225 3600 9225 8325 1800 8325 1800 3600
2 2 0 6 11 7 60 -1 -1 0.000 0 0 -1 0 0 5
	 6165 6930 7335 6930 7335 7245 6165 7245 6165 6930
2 2 0 6 14 7 60 -1 -1 0.000 0 0 -1 0 0 5
	 6165 6435 7335 6435 7335 6750 6165 6750 6165 6435
2 2 0 6 14 7 60 -1 -1 0.000 0 0 -1 0 0 5
	 4365 5310 5535 5310 5535 5625 4365 5625 4365 5310
4 1 0 50 -1 18 12 0.0000 4 150 705 3375 5220 RF SoC\001
4 1 0 50 -1 18 12 0.0000 4 150 270 6750 2520 PC\001
4 1 0 50 -1 18 12 0.0000 4 195 885 8550 2745 Keyboard\001
4 1 0 50 -1 18 10 0.0000 4 120 420 3375 5715 Code\001
4 0 0 50 -1 18 10 0.0000 4 150 1545 10575 2520 Device / Subsystem\001
4 1 0 50 -1 18 12 0.0000 4 150 435 4950 5040 MCU\001
4 0 0 50 -1 18 10 0.0000 4 150 1200 10575 3195 Case boundary\001
4 0 0 50 -1 18 10 0.0000 4 150 1020 10575 3870 Physical seal\001
4 0 0 50 -1 18 10 0.0000 4 150 810 10575 4545 Encrypted\001
4 0 0 50 -1 18 10 0.0000 4 150 555 10575 5220 Signed\001
4 0 0 50 -1 18 10 0.0000 4 150 1860 10575 5895 Flash/debug protection\001
4 0 0 50 -1 18 10 0.0000 4 150 1665 10575 6570 Unprotected channel\001
4 0 0 50 -1 18 10 0.0000 4 150 1485 10575 7020 Encrypted channel\001
4 1 0 50 -1 18 12 0.0000 4 150 645 2295 8190 Anelok\001
4 1 0 50 -1 18 10 0.0000 4 120 750 6795 7515 User data\001
4 1 0 50 -1 18 12 0.0000 4 150 855 6750 7965 Memcard\001
4 1 0 50 -1 18 12 0.0000 4 195 690 4950 4005 Display\001
4 1 0 50 -1 18 12 0.0000 4 150 810 6750 4005 USB Dev\001
4 1 0 50 -1 18 12 0.0000 4 150 885 8325 4005 USB Host\001
4 1 0 50 -1 18 10 0.0000 4 150 1065 7650 4545 Multiple roles\001
4 1 0 50 -1 18 8 0.0000 4 90 75 1890 8685 1\001
4 1 0 50 -1 18 8 0.0000 4 90 75 1890 8910 2\001
4 0 0 50 -1 18 10 0.0000 4 150 4590 2025 8730 Encrypted with PIN (weak), retry limit for device unlocking\001
4 0 0 50 -1 18 10 0.0000 4 150 5790 2025 8955 Per-object symmetric encryption, object keys encrypted with master keys\001
4 0 0 50 -1 18 24 0.0000 4 390 5850 1755 1350 Anelok security model (basic)\001
4 1 0 50 -1 18 10 0.0000 4 120 1050 6750 7155 Trusted code\001
4 1 0 50 -1 18 10 0.0000 4 120 555 6750 6660 PW-DB\001
4 1 0 50 -1 18 8 0.0000 4 90 75 7290 6345 2\001
4 1 0 50 -1 18 10 0.0000 4 120 1050 4950 5895 Trusted code\001
4 1 0 50 -1 18 8 0.0000 4 90 75 5490 5220 1\001
4 1 0 50 -1 18 10 0.0000 4 150 960 4950 5535 Master Keys\001
