#FIG 3.2  Produced by xfig version 3.2.5c
Landscape
Center
Metric
A4      
100.00
Single
-2
1200 2
6 5130 2655 10890 7470
6 5130 2655 10890 6795
5 1 0 3 0 7 55 -1 -1 0.000 0 1 0 0 6840.000 6075.000 6165 6075 6840 6750 7515 6075
5 1 0 3 20 7 50 -1 -1 0.000 0 1 0 0 6435.000 6075.000 5760 6075 6435 6750 7110 6075
5 1 0 3 20 7 50 -1 -1 0.000 0 1 0 0 6480.000 6075.000 7110 6075 6480 5445 5850 6075
5 1 0 3 0 7 55 -1 -1 0.000 0 1 0 0 6885.000 6075.000 7515 6075 6885 5445 6255 6075
5 1 0 3 31 7 60 -1 -1 8.000 0 1 0 0 6570.000 6075.000 5895 6075 6570 6750 7245 6075
5 1 0 3 31 7 60 -1 -1 8.000 0 1 0 0 6615.000 6075.000 7245 6075 6615 5445 5985 6075
5 1 0 3 13 7 65 -1 -1 8.000 0 1 0 0 6750.000 6075.000 7380 6075 6750 5445 6120 6075
5 1 0 3 13 7 65 -1 -1 8.000 0 1 0 0 6705.000 6075.000 6030 6075 6705 6750 7380 6075
2 1 0 3 20 7 55 -1 -1 0.000 0 0 -1 0 0 2
	 5760 4500 5760 6075
2 1 0 2 0 7 50 -1 -1 0.000 0 0 -1 0 0 2
	 7875 6075 7650 6075
2 1 0 3 0 7 55 -1 -1 0.000 0 0 -1 0 0 2
	 6165 4500 6165 6075
2 1 0 2 0 7 45 -1 -1 0.000 0 0 -1 0 0 4
	 5760 3735 5760 3510 6165 3510 6165 3735
2 2 0 2 0 7 45 -1 -1 0.000 0 0 -1 0 0 5
	 5670 4500 6255 4500 6255 3735 5670 3735 5670 4500
2 1 0 2 0 7 45 -1 -1 0.000 0 0 -1 0 0 6
	 5715 3690 5670 3690 5670 2925 6255 2925 6255 3690 6210 3690
2 1 1 2 0 7 45 -1 -1 6.000 0 0 -1 0 0 4
	 5715 3690 5715 3465 6210 3465 6210 3690
2 1 1 3 31 7 60 -1 -1 4.000 0 0 7 0 0 2
	 5895 4500 5895 6075
2 1 1 3 13 7 65 -1 -1 4.000 0 0 7 0 0 2
	 6030 4500 6030 6075
2 2 1 4 0 7 70 -1 -1 10.000 0 0 -1 0 0 5
	 5175 2700 8100 2700 8100 4725 5175 4725 5175 2700
4 0 0 50 -1 22 12 0.0000 4 180 420 7965 6120 Long\001
4 0 0 50 -1 22 12 0.0000 4 135 1035 6525 4140 Micro-B male\001
4 0 0 50 -1 22 12 0.0000 4 135 1185 6525 3240 Micro-A female\001
4 0 0 50 -1 22 12 0.0000 4 135 2565 8325 3690 Direct cable or combination with\001
4 0 0 50 -1 22 12 0.0000 4 135 2325 8325 3915 A male to Micro B male cable.\001
-6
2 1 0 3 20 7 50 -1 -1 0.000 0 0 -1 0 0 2
	 5850 6075 5850 7425
2 1 0 3 0 7 55 -1 -1 0.000 0 0 -1 0 0 2
	 6255 6075 6255 7425
2 1 0 3 31 7 60 -1 -1 8.000 0 0 7 0 0 2
	 5985 6075 5985 7425
2 1 0 3 13 7 65 -1 -1 8.000 0 0 7 0 0 2
	 6120 6075 6120 7425
-6
2 1 0 3 20 7 55 -1 -1 0.000 0 0 -1 0 0 2
	 5760 990 5760 2925
2 1 0 3 0 7 55 -1 -1 0.000 0 0 -1 0 0 2
	 6165 1350 6165 2925
2 1 0 2 0 7 50 -1 -1 0.000 0 0 -1 0 0 4
	 3735 1350 3510 1350 3510 990 3735 990
2 2 0 2 0 7 45 -1 -1 0.000 0 0 -1 0 0 5
	 3735 900 4500 900 4500 1440 3735 1440 3735 900
2 1 0 2 0 7 50 -1 -1 0.000 0 0 -1 1 0 2
	1 1 2.00 60.00 60.00
	 4725 2070 4725 1440
2 1 0 3 20 7 50 -1 -1 0.000 0 0 -1 0 0 2
	 4500 990 7425 990
2 1 0 3 31 7 50 -1 -1 0.000 0 0 -1 0 0 2
	 4500 1080 7425 1080
2 1 0 3 13 7 50 -1 -1 0.000 0 0 -1 0 0 2
	 4500 1170 7425 1170
2 1 0 3 0 7 50 -1 -1 0.000 0 0 -1 0 0 2
	 4500 1350 7425 1350
2 1 0 3 0 7 50 -1 -1 0.000 0 0 -1 0 0 3
	 4500 1260 4725 1260 4725 1350
2 1 0 2 0 7 50 -1 -1 0.000 0 0 -1 0 0 2
	 6255 675 6525 900
2 1 0 2 0 7 50 -1 -1 0.000 0 0 -1 0 0 2
	 5805 675 5535 900
2 1 0 3 0 7 50 -1 -1 0.000 0 0 -1 0 0 2
	 3375 7200 3825 7200
2 1 0 3 13 7 50 -1 -1 0.000 0 0 -1 0 0 2
	 3375 6975 3825 6975
2 1 0 3 31 7 50 -1 -1 0.000 0 0 -1 0 0 2
	 3375 6750 3825 6750
2 1 0 3 20 7 50 -1 -1 0.000 0 0 -1 0 0 2
	 3375 6525 3825 6525
2 2 0 2 0 7 45 -1 -1 0.000 0 0 -1 0 0 5
	 5760 8505 6345 8505 6345 9090 5760 9090 5760 8505
2 2 0 2 0 7 45 -1 -1 0.000 0 0 -1 0 0 5
	 7425 630 8550 630 8550 1665 7425 1665 7425 630
2 1 1 2 0 7 50 -1 -1 6.000 0 0 -1 0 0 4
	 8550 1485 7920 1485 7920 810 8550 810
2 2 0 2 0 7 45 -1 -1 0.000 0 0 7 0 0 5
	 5670 7425 6435 7425 6435 8505 5670 8505 5670 7425
4 0 0 50 -1 22 12 0.0000 4 180 1905 3375 720 Micro-A male ("correct")\001
4 0 0 50 -1 22 12 0.0000 4 180 1920 3375 495 Micro-B male (preferred)\001
4 0 0 50 -1 22 12 0.0000 4 180 1890 3600 2430 indicates upstream port\001
4 0 0 50 -1 22 12 0.0000 4 135 1665 3600 2250 ID connected to GND\001
4 1 0 50 -1 22 12 0.0000 4 135 435 6030 585 Short\001
4 2 0 50 -1 22 12 0.0000 4 135 555 3150 1215 Anelok\001
4 0 0 50 -1 22 12 0.0000 4 180 765 8820 1215 Keyboard\001
4 0 0 50 -1 22 12 0.0000 4 135 450 3915 6570 VBUS\001
4 0 0 50 -1 22 12 0.0000 4 135 180 3915 6795 D-\001
4 0 0 50 -1 22 12 0.0000 4 135 210 3915 7020 D+\001
4 0 0 50 -1 22 12 0.0000 4 135 360 3915 7245 GND\001
4 1 0 50 -1 22 12 0.0000 4 135 225 6075 9360 PC\001
4 2 0 50 -1 22 12 0.0000 4 135 930 5535 8190 USB A male\001
4 1 0 50 -1 22 12 0.0000 4 135 1080 7965 495 USB A female\001
