#define exchange_bold_width 12
#define exchange_bold_height 12
static unsigned char exchange_bold_bits[] = {
   0x80, 0x01, 0xfe, 0x03, 0xfe, 0x07, 0xfe, 0x03, 0x80, 0x01, 0x00, 0x00,
   0x18, 0x00, 0xfc, 0x07, 0xfe, 0x07, 0xfc, 0x07, 0x18, 0x00, 0x00, 0x00};
