#define eye_width 12
#define eye_height 12
static unsigned char eye_bits[] = {
   0x00, 0x00, 0x00, 0x00, 0xf8, 0x00, 0x04, 0x01, 0x72, 0x02, 0x71, 0x04,
   0x72, 0x02, 0x04, 0x01, 0xf8, 0x00, 0x00, 0x00, 0x00, 0x00, 0x00, 0x00};
