#define sorry_width 16
#define sorry_height 16
static unsigned char sorry_bits[] = {
   0xe0, 0x03, 0x10, 0x04, 0x08, 0x08, 0x24, 0x12, 0x34, 0x16, 0x04, 0x10,
   0xc4, 0x11, 0x22, 0x22, 0x01, 0x40, 0x09, 0x48, 0x06, 0x30, 0x04, 0x10,
   0x04, 0x10, 0x02, 0x20, 0x33, 0x66, 0xcc, 0x19};
