EESchema Schematic File Version 2
LIBS:pwr
LIBS:r
LIBS:c
LIBS:gencon
LIBS:powered
LIBS:er-oled-fpc30
LIBS:testpoint
LIBS:tswa
LIBS:device_sot
LIBS:8_10-card
LIBS:dui-cache
EELAYER 24 0
EELAYER END
$Descr A4 11693 8268
encoding utf-8
Sheet 1 1
Title "Anelok Development board UI (DEV-UI)"
Date "21 sep 2013"
Rev "1"
Comp "Werner Almesberger"
Comment1 ""
Comment2 ""
Comment3 ""
Comment4 ""
$EndDescr
$Comp
L GND #PWR01
U 1 1 5235E2BE
P 7800 5400
F 0 "#PWR01" H 7800 5400 30  0001 C CNN
F 1 "GND" H 7800 5330 30  0001 C CNN
F 2 "" H 7800 5400 60  0000 C CNN
F 3 "" H 7800 5400 60  0000 C CNN
	1    7800 5400
	-1   0    0    -1  
$EndComp
NoConn ~ 7600 4200
$Comp
L R R1
U 1 1 5235E35C
P 8200 5450
F 0 "R1" H 8330 5500 60  0000 C CNN
F 1 "82" H 8350 5400 60  0000 C CNN
F 2 "" H 8200 5450 60  0000 C CNN
F 3 "" H 8200 5450 60  0000 C CNN
	1    8200 5450
	-1   0    0    -1  
$EndComp
$Comp
L R R2
U 1 1 5235E36B
P 8200 6150
F 0 "R2" H 8330 6200 60  0000 C CNN
F 1 "680" H 8350 6100 60  0000 C CNN
F 2 "" H 8200 6150 60  0000 C CNN
F 3 "" H 8200 6150 60  0000 C CNN
	1    8200 6150
	-1   0    0    -1  
$EndComp
$Comp
L GND #PWR02
U 1 1 5235E396
P 8200 6600
F 0 "#PWR02" H 8200 6600 30  0001 C CNN
F 1 "GND" H 8200 6530 30  0001 C CNN
F 2 "" H 8200 6600 60  0000 C CNN
F 3 "" H 8200 6600 60  0000 C CNN
	1    8200 6600
	-1   0    0    -1  
$EndComp
$Comp
L C C5
U 1 1 5235E437
P 9300 5400
F 0 "C5" H 9350 5500 60  0000 L CNN
F 1 "4.7uF" H 9350 5300 60  0000 L CNN
F 2 "" H 9300 5400 60  0000 C CNN
F 3 "" H 9300 5400 60  0000 C CNN
F 4 "16V" H 9450 5200 60  0000 C CNN "V"
	1    9300 5400
	-1   0    0    -1  
$EndComp
$Comp
L GND #PWR03
U 1 1 5235E47D
P 8800 5800
F 0 "#PWR03" H 8800 5800 30  0001 C CNN
F 1 "GND" H 8800 5730 30  0001 C CNN
F 2 "" H 8800 5800 60  0000 C CNN
F 3 "" H 8800 5800 60  0000 C CNN
	1    8800 5800
	-1   0    0    -1  
$EndComp
$Comp
L GND #PWR04
U 1 1 5235E483
P 9300 5800
F 0 "#PWR04" H 9300 5800 30  0001 C CNN
F 1 "GND" H 9300 5730 30  0001 C CNN
F 2 "" H 9300 5800 60  0000 C CNN
F 3 "" H 9300 5800 60  0000 C CNN
	1    9300 5800
	-1   0    0    -1  
$EndComp
$Comp
L C C6
U 1 1 5235E51A
P 8800 5400
F 0 "C6" H 8850 5500 60  0000 L CNN
F 1 "2.2uF" H 8850 5300 60  0000 L CNN
F 2 "" H 8800 5400 60  0000 C CNN
F 3 "" H 8800 5400 60  0000 C CNN
F 4 "16V" H 8950 5200 60  0000 C CNN "V"
	1    8800 5400
	-1   0    0    -1  
$EndComp
$Comp
L C C1
U 1 1 5235E5FB
P 8250 2200
F 0 "C1" H 8300 2300 60  0000 L CNN
F 1 "1uF" H 8300 2100 60  0000 L CNN
F 2 "" H 8250 2200 60  0000 C CNN
F 3 "" H 8250 2200 60  0000 C CNN
	1    8250 2200
	-1   0    0    -1  
$EndComp
$Comp
L C C2
U 1 1 5235E614
P 8800 2400
F 0 "C2" H 8850 2500 60  0000 L CNN
F 1 "1uF" H 8850 2300 60  0000 L CNN
F 2 "" H 8800 2400 60  0000 C CNN
F 3 "" H 8800 2400 60  0000 C CNN
	1    8800 2400
	-1   0    0    -1  
$EndComp
$Comp
L C C4
U 1 1 5235E707
P 9900 5400
F 0 "C4" H 9950 5500 60  0000 L CNN
F 1 "1uF" H 9950 5300 60  0000 L CNN
F 2 "" H 9900 5400 60  0000 C CNN
F 3 "" H 9900 5400 60  0000 C CNN
	1    9900 5400
	-1   0    0    -1  
$EndComp
$Comp
L C C3
U 1 1 5235E723
P 10300 5400
F 0 "C3" H 10350 5500 60  0000 L CNN
F 1 "1uF" H 10350 5300 60  0000 L CNN
F 2 "" H 10300 5400 60  0000 C CNN
F 3 "" H 10300 5400 60  0000 C CNN
	1    10300 5400
	-1   0    0    -1  
$EndComp
$Comp
L GND #PWR05
U 1 1 5235E7AF
P 9900 5700
F 0 "#PWR05" H 9900 5700 30  0001 C CNN
F 1 "GND" H 9900 5630 30  0001 C CNN
F 2 "" H 9900 5700 60  0000 C CNN
F 3 "" H 9900 5700 60  0000 C CNN
	1    9900 5700
	-1   0    0    -1  
$EndComp
$Comp
L GND #PWR06
U 1 1 5235E7B5
P 10300 5700
F 0 "#PWR06" H 10300 5700 30  0001 C CNN
F 1 "GND" H 10300 5630 30  0001 C CNN
F 2 "" H 10300 5700 60  0000 C CNN
F 3 "" H 10300 5700 60  0000 C CNN
	1    10300 5700
	-1   0    0    -1  
$EndComp
$Comp
L 3V3 #PWR07
U 1 1 5235E880
P 10300 2700
F 0 "#PWR07" H 10300 2660 30  0001 C CNN
F 1 "3V3" H 10300 2850 60  0000 C CNN
F 2 "" H 10300 2700 60  0000 C CNN
F 3 "" H 10300 2700 60  0000 C CNN
	1    10300 2700
	-1   0    0    -1  
$EndComp
$Comp
L TSWA SW1
U 1 1 523609B4
P 2650 3650
F 0 "SW1" H 2600 3950 60  0000 C CNN
F 1 "TSWA-3N-CB11 LFS" H 2650 3350 60  0000 C CNN
F 2 "~" H 2650 3650 60  0000 C CNN
F 3 "~" H 2650 3650 60  0000 C CNN
	1    2650 3650
	-1   0    0    -1  
$EndComp
$Comp
L ER-OLED-FPC30 CON1
U 1 1 5236C9B8
P 7300 3750
F 0 "CON1" H 7400 5400 60  0000 C CNN
F 1 "ER-OLED013-1" H 7450 2100 60  0000 C CNN
F 2 "~" H 7400 3750 60  0000 C CNN
F 3 "~" H 7400 3750 60  0000 C CNN
	1    7300 3750
	-1   0    0    -1  
$EndComp
$Comp
L DIODE-SOT-AXC D1
U 1 1 523C5C10
P 3600 4600
F 0 "D1" H 3600 4700 40  0000 C CNN
F 1 "BAT54WT" H 3600 4500 40  0000 C CNN
F 2 "" H 3600 4600 60  0000 C CNN
F 3 "" H 3600 4600 60  0000 C CNN
	1    3600 4600
	0    -1   -1   0   
$EndComp
$Comp
L DIODE-SOT-AXC D2
U 1 1 523C5C1D
P 3950 4600
F 0 "D2" H 3950 4700 40  0000 C CNN
F 1 "BAT54WT" H 3950 4500 40  0000 C CNN
F 2 "" H 3950 4600 60  0000 C CNN
F 3 "" H 3950 4600 60  0000 C CNN
	1    3950 4600
	0    -1   -1   0   
$EndComp
$Comp
L DIODE-SOT-AXC D3
U 1 1 523C5C23
P 4300 4600
F 0 "D3" H 4300 4700 40  0000 C CNN
F 1 "BAT54WT" H 4300 4500 40  0000 C CNN
F 2 "" H 4300 4600 60  0000 C CNN
F 3 "" H 4300 4600 60  0000 C CNN
	1    4300 4600
	0    -1   -1   0   
$EndComp
Text Label 8600 3500 2    60   ~ 0
nCS
Text Label 8600 3600 2    60   ~ 0
nRES
Text Label 8600 3700 2    60   ~ 0
DnC
Text Label 8600 4000 2    60   ~ 0
SCLK
Text Label 8600 4100 2    60   ~ 0
SDIN
$Comp
L POWERED #FLG08
U 1 1 523C6691
P 8800 4500
F 0 "#FLG08" H 9000 4400 60  0001 C CNN
F 1 "POWERED" H 8800 4550 60  0000 C CNN
F 2 "" H 8800 4500 60  0000 C CNN
F 3 "" H 8800 4500 60  0000 C CNN
	1    8800 4500
	1    0    0    -1  
$EndComp
$Comp
L CONN_8 CON2
U 1 1 523C6799
P 5900 5450
F 0 "CON2" H 5900 5900 60  0000 C CNN
F 1 "CONN_8" H 5900 5000 60  0000 C CNN
F 2 "" H 5900 5450 60  0000 C CNN
F 3 "" H 5900 5450 60  0000 C CNN
	1    5900 5450
	1    0    0    -1  
$EndComp
$Comp
L GND #PWR09
U 1 1 523C67CE
P 4800 6000
F 0 "#PWR09" H 4800 6000 30  0001 C CNN
F 1 "GND" H 4800 5930 30  0001 C CNN
F 2 "" H 4800 6000 60  0000 C CNN
F 3 "" H 4800 6000 60  0000 C CNN
	1    4800 6000
	1    0    0    -1  
$EndComp
$Comp
L 3V3 #PWR010
U 1 1 523C67D4
P 4800 4900
F 0 "#PWR010" H 4800 4860 30  0001 C CNN
F 1 "3V3" H 4800 5050 60  0000 C CNN
F 2 "" H 4800 4900 60  0000 C CNN
F 3 "" H 4800 4900 60  0000 C CNN
	1    4800 4900
	1    0    0    -1  
$EndComp
Text Label 5000 5100 0    60   ~ 0
DAT2
Text Label 5000 5200 0    60   ~ 0
DAT3
Text Label 5000 5300 0    60   ~ 0
CMD
Text Label 5000 5500 0    60   ~ 0
CLK
Text Label 5000 5400 0    60   ~ 0
VDD
Text Label 5000 5600 0    60   ~ 0
GND
Text Label 5000 5700 0    60   ~ 0
DAT0
Text Label 5000 5800 0    60   ~ 0
DAT1
Text Label 1100 5100 0    60   ~ 0
nCS
Text Label 1100 5200 0    60   ~ 0
nRES
Text Label 1100 5300 0    60   ~ 0
DnC
Text Label 1100 5500 0    60   ~ 0
SCLK
Text Label 1100 5700 0    60   ~ 0
SDIN
Text Label 1800 3800 0    60   ~ 0
COM
Text Label 3300 3500 0    60   ~ 0
NO
Text Label 3300 3650 0    60   ~ 0
A
Text Label 3300 3800 0    60   ~ 0
B
Wire Wire Line
	7600 2300 7800 2300
Wire Wire Line
	7800 2300 7800 5400
Wire Wire Line
	7600 3000 7800 3000
Connection ~ 7800 3000
Wire Wire Line
	7600 3200 7800 3200
Connection ~ 7800 3200
Wire Wire Line
	7600 3300 7800 3300
Connection ~ 7800 3300
Wire Wire Line
	7600 3400 7800 3400
Connection ~ 7800 3400
Wire Wire Line
	7600 5100 7800 5100
Connection ~ 7800 5100
Wire Wire Line
	7600 4300 7800 4300
Connection ~ 7800 4300
Wire Wire Line
	7600 4400 7800 4400
Connection ~ 7800 4400
Wire Wire Line
	7600 4500 7800 4500
Connection ~ 7800 4500
Wire Wire Line
	7600 4600 7800 4600
Connection ~ 7800 4600
Wire Wire Line
	7600 4700 7800 4700
Connection ~ 7800 4700
Wire Wire Line
	7600 4800 8200 4800
Wire Wire Line
	8200 4800 8200 5200
Wire Wire Line
	8200 5700 8200 5900
Wire Wire Line
	8200 6400 8200 6600
Wire Wire Line
	7600 3800 7800 3800
Connection ~ 7800 3800
Wire Wire Line
	7600 3900 7800 3900
Connection ~ 7800 3900
Wire Wire Line
	7600 5000 8800 5000
Wire Wire Line
	8800 4700 8800 5200
Wire Wire Line
	7600 4900 9300 4900
Wire Wire Line
	9300 4900 9300 5200
Wire Wire Line
	9300 5600 9300 5800
Wire Wire Line
	8800 5600 8800 5800
Wire Wire Line
	7600 2400 7950 2400
Wire Wire Line
	7950 2400 7950 1900
Wire Wire Line
	7950 1900 8250 1900
Wire Wire Line
	8250 1900 8250 2000
Wire Wire Line
	7600 2500 8250 2500
Wire Wire Line
	8250 2500 8250 2400
Wire Wire Line
	7600 2600 8500 2600
Wire Wire Line
	8500 2600 8500 2100
Wire Wire Line
	8500 2100 8800 2100
Wire Wire Line
	8800 2100 8800 2200
Wire Wire Line
	7600 2700 8800 2700
Wire Wire Line
	8800 2700 8800 2600
Wire Wire Line
	7600 3100 9900 3100
Wire Wire Line
	9900 2800 9900 5200
Wire Wire Line
	7600 2800 10300 2800
Wire Wire Line
	10300 2700 10300 5200
Wire Wire Line
	9900 5600 9900 5700
Wire Wire Line
	10300 5600 10300 5700
Connection ~ 9900 2800
Connection ~ 9900 3100
Connection ~ 10300 2800
Wire Wire Line
	7600 5200 7800 5200
Connection ~ 7800 5200
Wire Wire Line
	1700 3800 2200 3800
Wire Wire Line
	3100 3800 3600 3800
Wire Wire Line
	3600 3800 3600 4400
Wire Wire Line
	3100 3650 3950 3650
Wire Wire Line
	3950 3650 3950 4400
Wire Wire Line
	3100 3500 4300 3500
Wire Wire Line
	4300 3500 4300 4400
Wire Wire Line
	8700 3500 7600 3500
Wire Wire Line
	8700 3600 7600 3600
Wire Wire Line
	8700 3700 7600 3700
Wire Wire Line
	8700 4000 7600 4000
Wire Wire Line
	8700 4100 7600 4100
Connection ~ 8800 5000
Wire Wire Line
	5500 5400 4800 5400
Wire Wire Line
	4800 5400 4800 4900
Wire Wire Line
	5500 5600 4800 5600
Wire Wire Line
	4800 5600 4800 6000
Wire Wire Line
	1000 5700 5500 5700
Wire Wire Line
	1000 5500 5500 5500
Wire Wire Line
	1000 5300 5500 5300
Wire Wire Line
	1000 5200 5500 5200
Wire Wire Line
	1000 5100 5500 5100
Wire Wire Line
	5500 5800 1700 5800
Wire Wire Line
	1700 5800 1700 3800
Wire Wire Line
	3950 4800 3950 5700
Connection ~ 3950 5700
Wire Wire Line
	4300 4800 4300 5300
Connection ~ 4300 5300
Wire Wire Line
	3600 4800 3600 5500
Connection ~ 3600 5500
$EndSCHEMATC
